%!PS-Adobe-3.0 EPSF-3.0
%%Title: forestpred.eps
%%Creator: Matplotlib v3.7.1, https://matplotlib.org/
%%CreationDate: Mon Aug 21 12:02:09 2023
%%Orientation: portrait
%%BoundingBox: -234 36 846 756
%%HiResBoundingBox: -234.000000 36.000000 846.000000 756.000000
%%EndComments
%%BeginProlog
/mpldict 11 dict def
mpldict begin
/_d { bind def } bind def
/m { moveto } _d
/l { lineto } _d
/r { rlineto } _d
/c { curveto } _d
/cl { closepath } _d
/ce { closepath eofill } _d
/box {
      m
      1 index 0 r
      0 exch r
      neg 0 r
      cl
    } _d
/clipbox {
      box
      clip
      newpath
    } _d
/sc { setcachedevice } _d
%!PS-Adobe-3.0 Resource-Font
%%Creator: Converted from TrueType to Type 3 by Matplotlib.
10 dict begin
/FontName /DejaVuSans def
/PaintType 0 def
/FontMatrix [0.00048828125 0 0 0.00048828125 0 0] def
/FontBBox [-2090 -948 3673 2524] def
/FontType 3 def
/Encoding [/space /parenleft /parenright /zero /one /two /three /four /five /A /B /C /D /E /G /I /L /M /P /R /S /T /Y /a /b /c /d /e /g /h /i /l /n /o /p /r /s /t /u /v] def
/CharStrings 41 dict dup begin
/.notdef 0 def
/space{651 0 0 0 0 0 sc
ce} _d
/parenleft{799 0 176 -270 635 1554 sc
635 1554 m
546 1401 479 1249 436 1099 c
393 949 371 797 371 643 c
371 489 393 336 436 185 c
480 34 546 -117 635 -270 c
475 -270 l
375 -113 300 41 250 192 c
201 343 176 494 176 643 c
176 792 201 941 250 1092 c
299 1243 374 1397 475 1554 c
635 1554 l

ce} _d
/parenright{799 0 164 -270 623 1554 sc
164 1554 m
324 1554 l
424 1397 499 1243 548 1092 c
598 941 623 792 623 643 c
623 494 598 343 548 192 c
499 41 424 -113 324 -270 c
164 -270 l
253 -117 319 34 362 185 c
406 336 428 489 428 643 c
428 797 406 949 362 1099 c
319 1249 253 1401 164 1554 c

ce} _d
/zero{1303 0 135 -29 1167 1520 sc
651 1360 m
547 1360 469 1309 416 1206 c
364 1104 338 950 338 745 c
338 540 364 387 416 284 c
469 182 547 131 651 131 c
756 131 834 182 886 284 c
939 387 965 540 965 745 c
965 950 939 1104 886 1206 c
834 1309 756 1360 651 1360 c

651 1520 m
818 1520 946 1454 1034 1321 c
1123 1189 1167 997 1167 745 c
1167 494 1123 302 1034 169 c
946 37 818 -29 651 -29 c
484 -29 356 37 267 169 c
179 302 135 494 135 745 c
135 997 179 1189 267 1321 c
356 1454 484 1520 651 1520 c

ce} _d
/one{1303 0 225 0 1114 1493 sc
254 170 m
584 170 l
584 1309 l
225 1237 l
225 1421 l
582 1493 l
784 1493 l
784 170 l
1114 170 l
1114 0 l
254 0 l
254 170 l

ce} _d
/two{1303 0 150 0 1098 1520 sc
393 170 m
1098 170 l
1098 0 l
150 0 l
150 170 l
227 249 331 356 463 489 c
596 623 679 709 713 748 c
778 821 823 882 848 932 c
874 983 887 1032 887 1081 c
887 1160 859 1225 803 1275 c
748 1325 675 1350 586 1350 c
523 1350 456 1339 385 1317 c
315 1295 240 1262 160 1217 c
160 1421 l
241 1454 317 1478 388 1495 c
459 1512 523 1520 582 1520 c
737 1520 860 1481 952 1404 c
1044 1327 1090 1223 1090 1094 c
1090 1033 1078 974 1055 919 c
1032 864 991 800 930 725 c
913 706 860 650 771 557 c
682 465 556 336 393 170 c

ce} _d
/three{1303 0 156 -29 1139 1520 sc
831 805 m
928 784 1003 741 1057 676 c
1112 611 1139 530 1139 434 c
1139 287 1088 173 987 92 c
886 11 742 -29 555 -29 c
492 -29 428 -23 361 -10 c
295 2 227 20 156 45 c
156 240 l
212 207 273 183 340 166 c
407 149 476 141 549 141 c
676 141 772 166 838 216 c
905 266 938 339 938 434 c
938 522 907 591 845 640 c
784 690 698 715 588 715 c
414 715 l
414 881 l
596 881 l
695 881 771 901 824 940 c
877 980 903 1037 903 1112 c
903 1189 876 1247 821 1288 c
767 1329 689 1350 588 1350 c
533 1350 473 1344 410 1332 c
347 1320 277 1301 201 1276 c
201 1456 l
278 1477 349 1493 416 1504 c
483 1515 547 1520 606 1520 c
759 1520 881 1485 970 1415 c
1059 1346 1104 1252 1104 1133 c
1104 1050 1080 980 1033 923 c
986 866 918 827 831 805 c

ce} _d
/four{1303 0 100 0 1188 1493 sc
774 1317 m
264 520 l
774 520 l
774 1317 l

721 1493 m
975 1493 l
975 520 l
1188 520 l
1188 352 l
975 352 l
975 0 l
774 0 l
774 352 l
100 352 l
100 547 l
721 1493 l

ce} _d
/five{1303 0 158 -29 1124 1493 sc
221 1493 m
1014 1493 l
1014 1323 l
406 1323 l
406 957 l
435 967 465 974 494 979 c
523 984 553 987 582 987 c
749 987 881 941 978 850 c
1075 759 1124 635 1124 479 c
1124 318 1074 193 974 104 c
874 15 733 -29 551 -29 c
488 -29 424 -24 359 -13 c
294 -2 227 14 158 35 c
158 238 l
218 205 280 181 344 165 c
408 149 476 141 547 141 c
662 141 754 171 821 232 c
888 293 922 375 922 479 c
922 583 888 665 821 726 c
754 787 662 817 547 817 c
493 817 439 811 385 799 c
332 787 277 768 221 743 c
221 1493 l

ce} _d
/A{1401 0 16 0 1384 1493 sc
700 1294 m
426 551 l
975 551 l
700 1294 l

586 1493 m
815 1493 l
1384 0 l
1174 0 l
1038 383 l
365 383 l
229 0 l
16 0 l
586 1493 l

ce} _d
/B{1405 0 201 0 1260 1493 sc
403 713 m
403 166 l
727 166 l
836 166 916 188 968 233 c
1021 278 1047 347 1047 440 c
1047 533 1021 602 968 646 c
916 691 836 713 727 713 c
403 713 l

403 1327 m
403 877 l
702 877 l
801 877 874 895 922 932 c
971 969 995 1026 995 1102 c
995 1177 971 1234 922 1271 c
874 1308 801 1327 702 1327 c
403 1327 l

201 1493 m
717 1493 l
871 1493 990 1461 1073 1397 c
1156 1333 1198 1242 1198 1124 c
1198 1033 1177 960 1134 906 c
1091 852 1029 818 946 805 c
1045 784 1122 739 1177 671 c
1232 604 1260 519 1260 418 c
1260 285 1215 182 1124 109 c
1033 36 904 0 737 0 c
201 0 l
201 1493 l

ce} _d
/C{1430 0 115 -29 1319 1520 sc
1319 1378 m
1319 1165 l
1251 1228 1178 1276 1101 1307 c
1024 1338 943 1354 856 1354 c
685 1354 555 1302 464 1197 c
373 1093 328 942 328 745 c
328 548 373 398 464 293 c
555 189 685 137 856 137 c
943 137 1024 153 1101 184 c
1178 215 1251 263 1319 326 c
1319 115 l
1248 67 1173 31 1094 7 c
1015 -17 932 -29 844 -29 c
618 -29 440 40 310 178 c
180 317 115 506 115 745 c
115 985 180 1174 310 1312 c
440 1451 618 1520 844 1520 c
933 1520 1017 1508 1096 1484 c
1175 1461 1250 1425 1319 1378 c

ce} _d
/D{1577 0 201 0 1456 1493 sc
403 1327 m
403 166 l
647 166 l
853 166 1004 213 1099 306 c
1195 399 1243 547 1243 748 c
1243 948 1195 1094 1099 1187 c
1004 1280 853 1327 647 1327 c
403 1327 l

201 1493 m
616 1493 l
905 1493 1118 1433 1253 1312 c
1388 1192 1456 1004 1456 748 c
1456 491 1388 302 1252 181 c
1116 60 904 0 616 0 c
201 0 l
201 1493 l

ce} _d
/E{1294 0 201 0 1163 1493 sc
201 1493 m
1145 1493 l
1145 1323 l
403 1323 l
403 881 l
1114 881 l
1114 711 l
403 711 l
403 170 l
1163 170 l
1163 0 l
201 0 l
201 1493 l

ce} _d
/G{1587 0 115 -29 1419 1520 sc
1219 213 m
1219 614 l
889 614 l
889 780 l
1419 780 l
1419 139 l
1341 84 1255 42 1161 13 c
1067 -15 967 -29 860 -29 c
627 -29 444 39 312 175 c
181 312 115 502 115 745 c
115 989 181 1179 312 1315 c
444 1452 627 1520 860 1520 c
957 1520 1050 1508 1137 1484 c
1225 1460 1306 1425 1380 1378 c
1380 1163 l
1305 1226 1226 1274 1142 1306 c
1058 1338 970 1354 877 1354 c
694 1354 557 1303 465 1201 c
374 1099 328 947 328 745 c
328 544 374 392 465 290 c
557 188 694 137 877 137 c
948 137 1012 143 1068 155 c
1124 168 1174 187 1219 213 c

ce} _d
/I{604 0 201 0 403 1493 sc
201 1493 m
403 1493 l
403 0 l
201 0 l
201 1493 l

ce} _d
/L{1141 0 201 0 1130 1493 sc
201 1493 m
403 1493 l
403 170 l
1130 170 l
1130 0 l
201 0 l
201 1493 l

ce} _d
/M{1767 0 201 0 1567 1493 sc
201 1493 m
502 1493 l
883 477 l
1266 1493 l
1567 1493 l
1567 0 l
1370 0 l
1370 1311 l
985 287 l
782 287 l
397 1311 l
397 0 l
201 0 l
201 1493 l

ce} _d
/P{1235 0 201 0 1165 1493 sc
403 1327 m
403 766 l
657 766 l
751 766 824 790 875 839 c
926 888 952 957 952 1047 c
952 1136 926 1205 875 1254 c
824 1303 751 1327 657 1327 c
403 1327 l

201 1493 m
657 1493 l
824 1493 951 1455 1036 1379 c
1122 1304 1165 1193 1165 1047 c
1165 900 1122 788 1036 713 c
951 638 824 600 657 600 c
403 600 l
403 0 l
201 0 l
201 1493 l

ce} _d
/R{1423 0 201 0 1364 1493 sc
909 700 m
952 685 994 654 1035 606 c
1076 558 1118 492 1159 408 c
1364 0 l
1147 0 l
956 383 l
907 483 859 549 812 582 c
766 615 703 631 623 631 c
403 631 l
403 0 l
201 0 l
201 1493 l
657 1493 l
828 1493 955 1457 1039 1386 c
1123 1315 1165 1207 1165 1063 c
1165 969 1143 891 1099 829 c
1056 767 992 724 909 700 c

403 1327 m
403 797 l
657 797 l
754 797 828 819 877 864 c
927 909 952 976 952 1063 c
952 1150 927 1216 877 1260 c
828 1305 754 1327 657 1327 c
403 1327 l

ce} _d
/S{1300 0 135 -29 1186 1520 sc
1096 1444 m
1096 1247 l
1019 1284 947 1311 879 1329 c
811 1347 745 1356 682 1356 c
572 1356 487 1335 427 1292 c
368 1249 338 1189 338 1110 c
338 1044 358 994 397 960 c
437 927 512 900 623 879 c
745 854 l
896 825 1007 775 1078 702 c
1150 630 1186 533 1186 412 c
1186 267 1137 158 1040 83 c
943 8 801 -29 614 -29 c
543 -29 468 -21 388 -5 c
309 11 226 35 141 66 c
141 274 l
223 228 303 193 382 170 c
461 147 538 135 614 135 c
729 135 818 158 881 203 c
944 248 975 313 975 397 c
975 470 952 528 907 569 c
862 610 789 641 686 662 c
563 686 l
412 716 303 763 236 827 c
169 891 135 980 135 1094 c
135 1226 181 1330 274 1406 c
367 1482 496 1520 659 1520 c
729 1520 800 1514 873 1501 c
946 1488 1020 1469 1096 1444 c

ce} _d
/T{1251 0 -6 0 1257 1493 sc
-6 1493 m
1257 1493 l
1257 1323 l
727 1323 l
727 0 l
524 0 l
524 1323 l
-6 1323 l
-6 1493 l

ce} _d
/Y{1251 0 -4 0 1255 1493 sc
-4 1493 m
213 1493 l
627 879 l
1038 1493 l
1255 1493 l
727 711 l
727 0 l
524 0 l
524 711 l
-4 1493 l

ce} _d
/a{1255 0 123 -29 1069 1147 sc
702 563 m
553 563 450 546 393 512 c
336 478 307 420 307 338 c
307 273 328 221 371 182 c
414 144 473 125 547 125 c
649 125 731 161 792 233 c
854 306 885 402 885 522 c
885 563 l
702 563 l

1069 639 m
1069 0 l
885 0 l
885 170 l
843 102 791 52 728 19 c
665 -13 589 -29 498 -29 c
383 -29 292 3 224 67 c
157 132 123 218 123 326 c
123 452 165 547 249 611 c
334 675 460 707 627 707 c
885 707 l
885 725 l
885 810 857 875 801 921 c
746 968 668 991 567 991 c
503 991 441 983 380 968 c
319 953 261 930 205 899 c
205 1069 l
272 1095 338 1114 401 1127 c
464 1140 526 1147 586 1147 c
748 1147 869 1105 949 1021 c
1029 937 1069 810 1069 639 c

ce} _d
/b{1300 0 186 -29 1188 1556 sc
997 559 m
997 694 969 800 913 877 c
858 954 781 993 684 993 c
587 993 510 954 454 877 c
399 800 371 694 371 559 c
371 424 399 317 454 240 c
510 163 587 125 684 125 c
781 125 858 163 913 240 c
969 317 997 424 997 559 c

371 950 m
410 1017 458 1066 517 1098 c
576 1131 647 1147 729 1147 c
865 1147 975 1093 1060 985 c
1145 877 1188 735 1188 559 c
1188 383 1145 241 1060 133 c
975 25 865 -29 729 -29 c
647 -29 576 -13 517 19 c
458 52 410 101 371 168 c
371 0 l
186 0 l
186 1556 l
371 1556 l
371 950 l

ce} _d
/c{1126 0 113 -29 999 1147 sc
999 1077 m
999 905 l
947 934 895 955 842 969 c
790 984 737 991 684 991 c
565 991 472 953 406 877 c
340 802 307 696 307 559 c
307 422 340 316 406 240 c
472 165 565 127 684 127 c
737 127 790 134 842 148 c
895 163 947 184 999 213 c
999 43 l
948 19 894 1 839 -11 c
784 -23 726 -29 664 -29 c
495 -29 361 24 262 130 c
163 236 113 379 113 559 c
113 742 163 885 263 990 c
364 1095 501 1147 676 1147 c
733 1147 788 1141 842 1129 c
896 1118 948 1100 999 1077 c

ce} _d
/d{1300 0 113 -29 1114 1556 sc
930 950 m
930 1556 l
1114 1556 l
1114 0 l
930 0 l
930 168 l
891 101 842 52 783 19 c
724 -13 654 -29 571 -29 c
436 -29 325 25 240 133 c
155 241 113 383 113 559 c
113 735 155 877 240 985 c
325 1093 436 1147 571 1147 c
654 1147 724 1131 783 1098 c
842 1066 891 1017 930 950 c

303 559 m
303 424 331 317 386 240 c
442 163 519 125 616 125 c
713 125 790 163 846 240 c
902 317 930 424 930 559 c
930 694 902 800 846 877 c
790 954 713 993 616 993 c
519 993 442 954 386 877 c
331 800 303 694 303 559 c

ce} _d
/e{1260 0 113 -29 1151 1147 sc
1151 606 m
1151 516 l
305 516 l
313 389 351 293 419 226 c
488 160 583 127 705 127 c
776 127 844 136 910 153 c
977 170 1043 196 1108 231 c
1108 57 l
1042 29 974 8 905 -7 c
836 -22 765 -29 694 -29 c
515 -29 374 23 269 127 c
165 231 113 372 113 549 c
113 732 162 878 261 985 c
360 1093 494 1147 662 1147 c
813 1147 932 1098 1019 1001 c
1107 904 1151 773 1151 606 c

967 660 m
966 761 937 841 882 901 c
827 961 755 991 664 991 c
561 991 479 962 417 904 c
356 846 320 764 311 659 c
967 660 l

ce} _d
/g{1300 0 113 -426 1114 1147 sc
930 573 m
930 706 902 810 847 883 c
792 956 715 993 616 993 c
517 993 440 956 385 883 c
330 810 303 706 303 573 c
303 440 330 337 385 264 c
440 191 517 154 616 154 c
715 154 792 191 847 264 c
902 337 930 440 930 573 c

1114 139 m
1114 -52 1072 -193 987 -286 c
902 -379 773 -426 598 -426 c
533 -426 472 -421 415 -411 c
358 -402 302 -387 248 -367 c
248 -188 l
302 -217 355 -239 408 -253 c
461 -267 514 -274 569 -274 c
690 -274 780 -242 840 -179 c
900 -116 930 -21 930 106 c
930 197 l
892 131 843 82 784 49 c
725 16 654 0 571 0 c
434 0 323 52 239 157 c
155 262 113 400 113 573 c
113 746 155 885 239 990 c
323 1095 434 1147 571 1147 c
654 1147 725 1131 784 1098 c
843 1065 892 1016 930 950 c
930 1120 l
1114 1120 l
1114 139 l

ce} _d
/h{1298 0 186 0 1124 1556 sc
1124 676 m
1124 0 l
940 0 l
940 670 l
940 776 919 855 878 908 c
837 961 775 987 692 987 c
593 987 514 955 457 892 c
400 829 371 742 371 633 c
371 0 l
186 0 l
186 1556 l
371 1556 l
371 946 l
415 1013 467 1064 526 1097 c
586 1130 655 1147 733 1147 c
862 1147 959 1107 1025 1027 c
1091 948 1124 831 1124 676 c

ce} _d
/i{569 0 193 0 377 1556 sc
193 1120 m
377 1120 l
377 0 l
193 0 l
193 1120 l

193 1556 m
377 1556 l
377 1323 l
193 1323 l
193 1556 l

ce} _d
/l{569 0 193 0 377 1556 sc
193 1556 m
377 1556 l
377 0 l
193 0 l
193 1556 l

ce} _d
/n{1298 0 186 0 1124 1147 sc
1124 676 m
1124 0 l
940 0 l
940 670 l
940 776 919 855 878 908 c
837 961 775 987 692 987 c
593 987 514 955 457 892 c
400 829 371 742 371 633 c
371 0 l
186 0 l
186 1120 l
371 1120 l
371 946 l
415 1013 467 1064 526 1097 c
586 1130 655 1147 733 1147 c
862 1147 959 1107 1025 1027 c
1091 948 1124 831 1124 676 c

ce} _d
/o{1253 0 113 -29 1141 1147 sc
627 991 m
528 991 450 952 393 875 c
336 798 307 693 307 559 c
307 425 335 319 392 242 c
449 165 528 127 627 127 c
725 127 803 166 860 243 c
917 320 946 426 946 559 c
946 692 917 797 860 874 c
803 952 725 991 627 991 c

627 1147 m
787 1147 913 1095 1004 991 c
1095 887 1141 743 1141 559 c
1141 376 1095 232 1004 127 c
913 23 787 -29 627 -29 c
466 -29 340 23 249 127 c
158 232 113 376 113 559 c
113 743 158 887 249 991 c
340 1095 466 1147 627 1147 c

ce} _d
/p{1300 0 186 -426 1188 1147 sc
371 168 m
371 -426 l
186 -426 l
186 1120 l
371 1120 l
371 950 l
410 1017 458 1066 517 1098 c
576 1131 647 1147 729 1147 c
865 1147 975 1093 1060 985 c
1145 877 1188 735 1188 559 c
1188 383 1145 241 1060 133 c
975 25 865 -29 729 -29 c
647 -29 576 -13 517 19 c
458 52 410 101 371 168 c

997 559 m
997 694 969 800 913 877 c
858 954 781 993 684 993 c
587 993 510 954 454 877 c
399 800 371 694 371 559 c
371 424 399 317 454 240 c
510 163 587 125 684 125 c
781 125 858 163 913 240 c
969 317 997 424 997 559 c

ce} _d
/r{842 0 186 0 842 1147 sc
842 948 m
821 960 799 969 774 974 c
750 980 723 983 694 983 c
590 983 510 949 454 881 c
399 814 371 717 371 590 c
371 0 l
186 0 l
186 1120 l
371 1120 l
371 946 l
410 1014 460 1064 522 1097 c
584 1130 659 1147 748 1147 c
761 1147 775 1146 790 1144 c
805 1143 822 1140 841 1137 c
842 948 l

ce} _d
/s{1067 0 111 -29 967 1147 sc
907 1087 m
907 913 l
855 940 801 960 745 973 c
689 986 631 993 571 993 c
480 993 411 979 365 951 c
320 923 297 881 297 825 c
297 782 313 749 346 724 c
379 700 444 677 543 655 c
606 641 l
737 613 829 573 884 522 c
939 471 967 400 967 309 c
967 205 926 123 843 62 c
761 1 648 -29 504 -29 c
444 -29 381 -23 316 -11 c
251 0 183 18 111 41 c
111 231 l
179 196 246 169 312 151 c
378 134 443 125 508 125 c
595 125 661 140 708 169 c
755 199 778 241 778 295 c
778 345 761 383 727 410 c
694 437 620 462 506 487 c
442 502 l
328 526 246 563 195 612 c
144 662 119 730 119 817 c
119 922 156 1004 231 1061 c
306 1118 412 1147 549 1147 c
617 1147 681 1142 741 1132 c
801 1122 856 1107 907 1087 c

ce} _d
/t{803 0 55 0 754 1438 sc
375 1438 m
375 1120 l
754 1120 l
754 977 l
375 977 l
375 369 l
375 278 387 219 412 193 c
437 167 488 154 565 154 c
754 154 l
754 0 l
565 0 l
423 0 325 26 271 79 c
217 132 190 229 190 369 c
190 977 l
55 977 l
55 1120 l
190 1120 l
190 1438 l
375 1438 l

ce} _d
/u{1298 0 174 -29 1112 1147 sc
174 442 m
174 1120 l
358 1120 l
358 449 l
358 343 379 263 420 210 c
461 157 523 131 606 131 c
705 131 784 163 841 226 c
899 289 928 376 928 485 c
928 1120 l
1112 1120 l
1112 0 l
928 0 l
928 172 l
883 104 831 53 772 20 c
713 -13 645 -29 567 -29 c
438 -29 341 11 274 91 c
207 171 174 288 174 442 c

637 1147 m
637 1147 l

ce} _d
/v{1212 0 61 0 1151 1120 sc
61 1120 m
256 1120 l
606 180 l
956 1120 l
1151 1120 l
731 0 l
481 0 l
61 1120 l

ce} _d
end readonly def

/BuildGlyph {
 exch begin
 CharStrings exch
 2 copy known not {pop /.notdef} if
 true 3 1 roll get exec
 end
} _d

/BuildChar {
 1 index /Encoding get exch get
 1 index /BuildGlyph get exec
} _d

FontName currentdict end definefont pop
end
%%EndProlog
mpldict begin
-234 36 translate
1080 720 0 0 clipbox
gsave
0 0 m
1080 0 l
1080 720 l
0 720 l
cl
1.000 setgray
fill
grestore
gsave
51.05 396.56 m
354.80984 396.56 l
354.80984 694.56 l
51.05 694.56 l
cl
1.000 setgray
fill
grestore
0.800 setlinewidth
1 setlinejoin
0 setlinecap
[] 0 setdash
0.000 setgray
gsave
/o {
gsave
newpath
translate
0.8 setlinewidth
1 setlinejoin

0 setlinecap

0 0 m
0 -3.5 l

gsave
0.000 setgray
fill
grestore
stroke
grestore
} bind def
122.993 396.56 o
grestore
/DejaVuSans 10.000 selectfont
gsave

110.274 381.966 translate
0 rotate
0 0 m /two glyphshow
6.3623 0 m /zero glyphshow
12.7246 0 m /zero glyphshow
19.0869 0 m /five glyphshow
grestore
gsave
/o {
gsave
newpath
translate
0.8 setlinewidth
1 setlinejoin

0 setlinecap

0 0 m
0 -3.5 l

gsave
0.000 setgray
fill
grestore
stroke
grestore
} bind def
195.663 396.56 o
grestore
/DejaVuSans 10.000 selectfont
gsave

182.944 381.966 translate
0 rotate
0 0 m /two glyphshow
6.3623 0 m /zero glyphshow
12.7246 0 m /one glyphshow
19.0869 0 m /zero glyphshow
grestore
gsave
/o {
gsave
newpath
translate
0.8 setlinewidth
1 setlinejoin

0 setlinecap

0 0 m
0 -3.5 l

gsave
0.000 setgray
fill
grestore
stroke
grestore
} bind def
268.333 396.56 o
grestore
/DejaVuSans 10.000 selectfont
gsave

255.614 381.966 translate
0 rotate
0 0 m /two glyphshow
6.3623 0 m /zero glyphshow
12.7246 0 m /one glyphshow
19.0869 0 m /five glyphshow
grestore
gsave
/o {
gsave
newpath
translate
0.8 setlinewidth
1 setlinejoin

0 setlinecap

0 0 m
0 -3.5 l

gsave
0.000 setgray
fill
grestore
stroke
grestore
} bind def
341.003 396.56 o
grestore
/DejaVuSans 10.000 selectfont
gsave

328.284 381.966 translate
0 rotate
0 0 m /two glyphshow
6.3623 0 m /zero glyphshow
12.7246 0 m /two glyphshow
19.0869 0 m /zero glyphshow
grestore
/DejaVuSans 10.000 selectfont
gsave

192.367 368.294 translate
0 rotate
0 0 m /Y glyphshow
4.7334 0 m /e glyphshow
10.8857 0 m /a glyphshow
17.0137 0 m /r glyphshow
grestore
gsave
/o {
gsave
newpath
translate
0.8 setlinewidth
1 setlinejoin

0 setlinecap

-0 0 m
-3.5 0 l

gsave
0.000 setgray
fill
grestore
stroke
grestore
} bind def
51.05 429.403 o
grestore
/DejaVuSans 10.000 selectfont
gsave

24.9719 425.606 translate
0 rotate
0 0 m /one glyphshow
6.3623 0 m /five glyphshow
12.7246 0 m /zero glyphshow
grestore
gsave
/o {
gsave
newpath
translate
0.8 setlinewidth
1 setlinejoin

0 setlinecap

-0 0 m
-3.5 0 l

gsave
0.000 setgray
fill
grestore
stroke
grestore
} bind def
51.05 466.514 o
grestore
/DejaVuSans 10.000 selectfont
gsave

24.9719 462.717 translate
0 rotate
0 0 m /two glyphshow
6.3623 0 m /zero glyphshow
12.7246 0 m /zero glyphshow
grestore
gsave
/o {
gsave
newpath
translate
0.8 setlinewidth
1 setlinejoin

0 setlinecap

-0 0 m
-3.5 0 l

gsave
0.000 setgray
fill
grestore
stroke
grestore
} bind def
51.05 503.625 o
grestore
/DejaVuSans 10.000 selectfont
gsave

24.9719 499.828 translate
0 rotate
0 0 m /two glyphshow
6.3623 0 m /five glyphshow
12.7246 0 m /zero glyphshow
grestore
gsave
/o {
gsave
newpath
translate
0.8 setlinewidth
1 setlinejoin

0 setlinecap

-0 0 m
-3.5 0 l

gsave
0.000 setgray
fill
grestore
stroke
grestore
} bind def
51.05 540.736 o
grestore
/DejaVuSans 10.000 selectfont
gsave

24.9719 536.939 translate
0 rotate
0 0 m /three glyphshow
6.3623 0 m /zero glyphshow
12.7246 0 m /zero glyphshow
grestore
gsave
/o {
gsave
newpath
translate
0.8 setlinewidth
1 setlinejoin

0 setlinecap

-0 0 m
-3.5 0 l

gsave
0.000 setgray
fill
grestore
stroke
grestore
} bind def
51.05 577.846 o
grestore
/DejaVuSans 10.000 selectfont
gsave

24.9719 574.05 translate
0 rotate
0 0 m /three glyphshow
6.3623 0 m /five glyphshow
12.7246 0 m /zero glyphshow
grestore
gsave
/o {
gsave
newpath
translate
0.8 setlinewidth
1 setlinejoin

0 setlinecap

-0 0 m
-3.5 0 l

gsave
0.000 setgray
fill
grestore
stroke
grestore
} bind def
51.05 614.957 o
grestore
/DejaVuSans 10.000 selectfont
gsave

24.9719 611.16 translate
0 rotate
0 0 m /four glyphshow
6.3623 0 m /zero glyphshow
12.7246 0 m /zero glyphshow
grestore
gsave
/o {
gsave
newpath
translate
0.8 setlinewidth
1 setlinejoin

0 setlinecap

-0 0 m
-3.5 0 l

gsave
0.000 setgray
fill
grestore
stroke
grestore
} bind def
51.05 652.068 o
grestore
/DejaVuSans 10.000 selectfont
gsave

24.9719 648.271 translate
0 rotate
0 0 m /four glyphshow
6.3623 0 m /five glyphshow
12.7246 0 m /zero glyphshow
grestore
gsave
/o {
gsave
newpath
translate
0.8 setlinewidth
1 setlinejoin

0 setlinecap

-0 0 m
-3.5 0 l

gsave
0.000 setgray
fill
grestore
stroke
grestore
} bind def
51.05 689.179 o
grestore
/DejaVuSans 10.000 selectfont
gsave

24.9719 685.382 translate
0 rotate
0 0 m /five glyphshow
6.3623 0 m /zero glyphshow
12.7246 0 m /zero glyphshow
grestore
/DejaVuSans 10.000 selectfont
gsave

18.8938 494.591 translate
90 rotate
0 0 m /T glyphshow
4.6084 0 m /r glyphshow
8.46973 0 m /e glyphshow
14.6221 0 m /e glyphshow
20.7744 0 m /space glyphshow
23.9531 0 m /C glyphshow
30.9355 0 m /o glyphshow
37.0537 0 m /v glyphshow
42.9717 0 m /e glyphshow
49.124 0 m /r glyphshow
53.2354 0 m /space glyphshow
56.4141 0 m /L glyphshow
61.8604 0 m /o glyphshow
67.9785 0 m /s glyphshow
73.1885 0 m /s glyphshow
78.3984 0 m /space glyphshow
81.5771 0 m /parenleft glyphshow
85.4785 0 m /h glyphshow
91.8164 0 m /a glyphshow
97.9443 0 m /parenright glyphshow
grestore
1.500 setlinewidth
2 setlinecap
0.122 0.467 0.706 setrgbcolor
gsave
303.76 298 51.05 396.56 clipbox
64.857265 567.455392 m
79.391229 442.020772 l
93.925193 672.107945 l
108.459156 652.810311 l
122.99312 637.223761 l
137.527084 552.611059 l
152.061047 603.081793 l
166.595011 423.465355 l
181.128974 658.748045 l
195.662938 410.105455 l
210.196902 640.192628 l
224.730865 561.517659 l
239.264829 621.63721 l
253.798792 597.14406 l
268.332756 539.993375 l
282.86672 681.014545 l
297.400683 528.860125 l
311.934647 450.927372 l
326.468611 503.624757 l
341.002574 429.403088 l
stroke
grestore
1.000 setlinewidth
0 setlinecap
gsave
303.76 298 51.05 396.56 clipbox
/o {
gsave
newpath
translate
1.0 setlinewidth
1 setlinejoin

0 setlinecap

0 -3 m
0.795609 -3 1.55874 -2.683901 2.12132 -2.12132 c
2.683901 -1.55874 3 -0.795609 3 0 c
3 0.795609 2.683901 1.55874 2.12132 2.12132 c
1.55874 2.683901 0.795609 3 0 3 c
-0.795609 3 -1.55874 2.683901 -2.12132 2.12132 c
-2.683901 1.55874 -3 0.795609 -3 0 c
-3 -0.795609 -2.683901 -1.55874 -2.12132 -2.12132 c
-1.55874 -2.683901 -0.795609 -3 0 -3 c
cl

gsave
0.122 0.467 0.706 setrgbcolor
fill
grestore
stroke
grestore
} bind def
64.8573 567.455 o
79.3912 442.021 o
93.9252 672.108 o
108.459 652.81 o
122.993 637.224 o
137.527 552.611 o
152.061 603.082 o
166.595 423.465 o
181.129 658.748 o
195.663 410.105 o
210.197 640.193 o
224.731 561.518 o
239.265 621.637 o
253.799 597.144 o
268.333 539.993 o
282.867 681.015 o
297.401 528.86 o
311.935 450.927 o
326.469 503.625 o
341.003 429.403 o
grestore
0.800 setlinewidth
0 setlinejoin
2 setlinecap
0.000 setgray
gsave
51.05 396.56 m
51.05 694.56 l
stroke
grestore
gsave
354.80984 396.56 m
354.80984 694.56 l
stroke
grestore
gsave
51.05 396.56 m
354.80984 396.56 l
stroke
grestore
gsave
51.05 694.56 m
354.80984 694.56 l
stroke
grestore
/DejaVuSans 12.000 selectfont
gsave

170.094 700.56 translate
0 rotate
0 0 m /I glyphshow
3.53906 0 m /n glyphshow
11.1445 0 m /i glyphshow
14.4785 0 m /t glyphshow
19.1836 0 m /i glyphshow
22.5176 0 m /a glyphshow
29.8711 0 m /l glyphshow
33.2051 0 m /space glyphshow
37.0195 0 m /D glyphshow
46.2598 0 m /a glyphshow
53.6133 0 m /t glyphshow
58.3184 0 m /a glyphshow
grestore
1.000 setlinewidth
0 setlinecap
0.800 setgray
gsave
58.05 401.56 m
148.503125 401.56 l
149.836458 401.56 150.503125 402.226667 150.503125 403.56 c
150.503125 417.231875 l
150.503125 418.565208 149.836458 419.231875 148.503125 419.231875 c
58.05 419.231875 l
56.716667 419.231875 56.05 418.565208 56.05 417.231875 c
56.05 403.56 l
56.05 402.226667 56.716667 401.56 58.05 401.56 c
cl
gsave
1.000 setgray
fill
grestore
stroke
grestore
1.500 setlinewidth
1 setlinejoin
2 setlinecap
0.122 0.467 0.706 setrgbcolor
gsave
60.05 411.138125 m
70.05 411.138125 l
80.05 411.138125 l
stroke
grestore
1.000 setlinewidth
0 setlinecap
gsave
/o {
gsave
newpath
translate
1.0 setlinewidth
1 setlinejoin

0 setlinecap

0 -3 m
0.795609 -3 1.55874 -2.683901 2.12132 -2.12132 c
2.683901 -1.55874 3 -0.795609 3 0 c
3 0.795609 2.683901 1.55874 2.12132 2.12132 c
1.55874 2.683901 0.795609 3 0 3 c
-0.795609 3 -1.55874 2.683901 -2.12132 2.12132 c
-2.683901 1.55874 -3 0.795609 -3 0 c
-3 -0.795609 -2.683901 -1.55874 -2.12132 -2.12132 c
-1.55874 -2.683901 -0.795609 -3 0 -3 c
cl

gsave
0.122 0.467 0.706 setrgbcolor
fill
grestore
stroke
grestore
} bind def
70.05 411.138 o
grestore
0.000 setgray
/DejaVuSans 10.000 selectfont
gsave

88.05 407.638 translate
0 rotate
0 0 m /A glyphshow
6.71582 0 m /c glyphshow
12.2139 0 m /t glyphshow
16.1348 0 m /u glyphshow
22.4727 0 m /a glyphshow
28.6006 0 m /l glyphshow
31.3789 0 m /space glyphshow
34.5576 0 m /D glyphshow
42.2578 0 m /a glyphshow
48.3857 0 m /t glyphshow
52.3066 0 m /a glyphshow
grestore
gsave
407.45 396.56 m
711.20984 396.56 l
711.20984 694.56 l
407.45 694.56 l
cl
1.000 setgray
fill
grestore
0.800 setlinewidth
gsave
/o {
gsave
newpath
translate
0.8 setlinewidth
1 setlinejoin

0 setlinecap

0 0 m
0 -3.5 l

gsave
0.000 setgray
fill
grestore
stroke
grestore
} bind def
479.393 396.56 o
grestore
/DejaVuSans 10.000 selectfont
gsave

466.674 381.966 translate
0 rotate
0 0 m /two glyphshow
6.3623 0 m /zero glyphshow
12.7246 0 m /zero glyphshow
19.0869 0 m /five glyphshow
grestore
gsave
/o {
gsave
newpath
translate
0.8 setlinewidth
1 setlinejoin

0 setlinecap

0 0 m
0 -3.5 l

gsave
0.000 setgray
fill
grestore
stroke
grestore
} bind def
552.063 396.56 o
grestore
/DejaVuSans 10.000 selectfont
gsave

539.344 381.966 translate
0 rotate
0 0 m /two glyphshow
6.3623 0 m /zero glyphshow
12.7246 0 m /one glyphshow
19.0869 0 m /zero glyphshow
grestore
gsave
/o {
gsave
newpath
translate
0.8 setlinewidth
1 setlinejoin

0 setlinecap

0 0 m
0 -3.5 l

gsave
0.000 setgray
fill
grestore
stroke
grestore
} bind def
624.733 396.56 o
grestore
/DejaVuSans 10.000 selectfont
gsave

612.014 381.966 translate
0 rotate
0 0 m /two glyphshow
6.3623 0 m /zero glyphshow
12.7246 0 m /one glyphshow
19.0869 0 m /five glyphshow
grestore
gsave
/o {
gsave
newpath
translate
0.8 setlinewidth
1 setlinejoin

0 setlinecap

0 0 m
0 -3.5 l

gsave
0.000 setgray
fill
grestore
stroke
grestore
} bind def
697.403 396.56 o
grestore
/DejaVuSans 10.000 selectfont
gsave

684.684 381.966 translate
0 rotate
0 0 m /two glyphshow
6.3623 0 m /zero glyphshow
12.7246 0 m /two glyphshow
19.0869 0 m /zero glyphshow
grestore
/DejaVuSans 10.000 selectfont
gsave

548.767 368.294 translate
0 rotate
0 0 m /Y glyphshow
4.7334 0 m /e glyphshow
10.8857 0 m /a glyphshow
17.0137 0 m /r glyphshow
grestore
gsave
/o {
gsave
newpath
translate
0.8 setlinewidth
1 setlinejoin

0 setlinecap

-0 0 m
-3.5 0 l

gsave
0.000 setgray
fill
grestore
stroke
grestore
} bind def
407.45 435.718 o
grestore
/DejaVuSans 10.000 selectfont
gsave

381.372 431.921 translate
0 rotate
0 0 m /one glyphshow
6.3623 0 m /zero glyphshow
12.7246 0 m /zero glyphshow
grestore
gsave
/o {
gsave
newpath
translate
0.8 setlinewidth
1 setlinejoin

0 setlinecap

-0 0 m
-3.5 0 l

gsave
0.000 setgray
fill
grestore
stroke
grestore
} bind def
407.45 498.776 o
grestore
/DejaVuSans 10.000 selectfont
gsave

381.372 494.98 translate
0 rotate
0 0 m /two glyphshow
6.3623 0 m /zero glyphshow
12.7246 0 m /zero glyphshow
grestore
gsave
/o {
gsave
newpath
translate
0.8 setlinewidth
1 setlinejoin

0 setlinecap

-0 0 m
-3.5 0 l

gsave
0.000 setgray
fill
grestore
stroke
grestore
} bind def
407.45 561.835 o
grestore
/DejaVuSans 10.000 selectfont
gsave

381.372 558.038 translate
0 rotate
0 0 m /three glyphshow
6.3623 0 m /zero glyphshow
12.7246 0 m /zero glyphshow
grestore
gsave
/o {
gsave
newpath
translate
0.8 setlinewidth
1 setlinejoin

0 setlinecap

-0 0 m
-3.5 0 l

gsave
0.000 setgray
fill
grestore
stroke
grestore
} bind def
407.45 624.893 o
grestore
/DejaVuSans 10.000 selectfont
gsave

381.372 621.096 translate
0 rotate
0 0 m /four glyphshow
6.3623 0 m /zero glyphshow
12.7246 0 m /zero glyphshow
grestore
gsave
/o {
gsave
newpath
translate
0.8 setlinewidth
1 setlinejoin

0 setlinecap

-0 0 m
-3.5 0 l

gsave
0.000 setgray
fill
grestore
stroke
grestore
} bind def
407.45 687.951 o
grestore
/DejaVuSans 10.000 selectfont
gsave

381.372 684.154 translate
0 rotate
0 0 m /five glyphshow
6.3623 0 m /zero glyphshow
12.7246 0 m /zero glyphshow
grestore
/DejaVuSans 10.000 selectfont
gsave

375.294 494.591 translate
90 rotate
0 0 m /T glyphshow
4.6084 0 m /r glyphshow
8.46973 0 m /e glyphshow
14.6221 0 m /e glyphshow
20.7744 0 m /space glyphshow
23.9531 0 m /C glyphshow
30.9355 0 m /o glyphshow
37.0537 0 m /v glyphshow
42.9717 0 m /e glyphshow
49.124 0 m /r glyphshow
53.2354 0 m /space glyphshow
56.4141 0 m /L glyphshow
61.8604 0 m /o glyphshow
67.9785 0 m /s glyphshow
73.1885 0 m /s glyphshow
78.3984 0 m /space glyphshow
81.5771 0 m /parenleft glyphshow
85.4785 0 m /h glyphshow
91.8164 0 m /a glyphshow
97.9443 0 m /parenright glyphshow
grestore
1.500 setlinewidth
2 setlinecap
0.122 0.467 0.706 setrgbcolor
gsave
303.76 298 407.45 396.56 clipbox
421.257265 584.535527 m
435.791229 477.967199 l
450.325193 673.447564 l
464.859156 657.052436 l
479.39312 643.810218 l
493.927084 571.92389 l
508.461047 614.803454 l
522.995011 462.202653 l
537.528974 662.097091 l
552.062938 450.85218 l
566.596902 646.332545 l
581.130865 579.490872 l
595.664829 630.568 l
610.198792 609.7588 l
624.732756 561.203999 l
639.26672 681.014545 l
653.800683 551.745272 l
668.334647 485.534181 l
682.868611 530.30549 l
697.402574 467.247308 l
stroke
grestore
1.000 setlinewidth
0 setlinecap
gsave
303.76 298 407.45 396.56 clipbox
/o {
gsave
newpath
translate
1.0 setlinewidth
1 setlinejoin

0 setlinecap

0 -3 m
0.795609 -3 1.55874 -2.683901 2.12132 -2.12132 c
2.683901 -1.55874 3 -0.795609 3 0 c
3 0.795609 2.683901 1.55874 2.12132 2.12132 c
1.55874 2.683901 0.795609 3 0 3 c
-0.795609 3 -1.55874 2.683901 -2.12132 2.12132 c
-2.683901 1.55874 -3 0.795609 -3 0 c
-3 -0.795609 -2.683901 -1.55874 -2.12132 -2.12132 c
-1.55874 -2.683901 -0.795609 -3 0 -3 c
cl

gsave
0.122 0.467 0.706 setrgbcolor
fill
grestore
stroke
grestore
} bind def
421.257 584.536 o
435.791 477.967 o
450.325 673.448 o
464.859 657.052 o
479.393 643.81 o
493.927 571.924 o
508.461 614.803 o
522.995 462.203 o
537.529 662.097 o
552.063 450.852 o
566.597 646.333 o
581.131 579.491 o
595.665 630.568 o
610.199 609.759 o
624.733 561.204 o
639.267 681.015 o
653.801 551.745 o
668.335 485.534 o
682.869 530.305 o
697.403 467.247 o
grestore
1.500 setlinewidth
2 setlinecap
1.000 0.498 0.055 setrgbcolor
gsave
303.76 298 407.45 396.56 clipbox
421.257265 580.339076 m
435.791229 499.398436 l
450.325193 663.576552 l
464.859156 641.283861 l
479.39312 659.329127 l
493.927084 574.176275 l
508.461047 635.680369 l
522.995011 452.625517 l
537.528974 661.377083 l
552.062938 410.105455 l
566.596902 642.481392 l
581.130865 587.592481 l
595.664829 579.168611 l
610.198792 626.598011 l
624.732756 581.24524 l
639.26672 634.211672 l
653.800683 526.411502 l
668.334647 498.944302 l
682.868611 531.509102 l
697.402574 473.480385 l
stroke
grestore
1.000 setlinewidth
0 setlinecap
gsave
303.76 298 407.45 396.56 clipbox
/o {
gsave
newpath
translate
1.0 setlinewidth
1 setlinejoin

0 setlinecap

-3 -3 m
3 3 l
-3 3 m
3 -3 l

gsave
1.000 0.498 0.055 setrgbcolor
fill
grestore
stroke
grestore
} bind def
421.257 580.339 o
435.791 499.398 o
450.325 663.577 o
464.859 641.284 o
479.393 659.329 o
493.927 574.176 o
508.461 635.68 o
522.995 452.626 o
537.529 661.377 o
552.063 410.105 o
566.597 642.481 o
581.131 587.592 o
595.665 579.169 o
610.199 626.598 o
624.733 581.245 o
639.267 634.212 o
653.801 526.412 o
668.335 498.944 o
682.869 531.509 o
697.403 473.48 o
grestore
0.800 setlinewidth
0 setlinejoin
2 setlinecap
0.000 setgray
gsave
407.45 396.56 m
407.45 694.56 l
stroke
grestore
gsave
711.20984 396.56 m
711.20984 694.56 l
stroke
grestore
gsave
407.45 396.56 m
711.20984 396.56 l
stroke
grestore
gsave
407.45 694.56 m
711.20984 694.56 l
stroke
grestore
/DejaVuSans 12.000 selectfont
gsave

531.228 700.56 translate
0 rotate
0 0 m /A glyphshow
7.95898 0 m /d glyphshow
15.5762 0 m /a glyphshow
22.9297 0 m /b glyphshow
30.5469 0 m /o glyphshow
37.8887 0 m /o glyphshow
45.2305 0 m /s glyphshow
51.4824 0 m /t glyphshow
grestore
1.000 setlinewidth
0 setlinecap
0.800 setgray
gsave
414.45 401.56 m
504.903125 401.56 l
506.236458 401.56 506.903125 402.226667 506.903125 403.56 c
506.903125 431.90375 l
506.903125 433.237083 506.236458 433.90375 504.903125 433.90375 c
414.45 433.90375 l
413.116667 433.90375 412.45 433.237083 412.45 431.90375 c
412.45 403.56 l
412.45 402.226667 413.116667 401.56 414.45 401.56 c
cl
gsave
1.000 setgray
fill
grestore
stroke
grestore
1.500 setlinewidth
1 setlinejoin
2 setlinecap
0.122 0.467 0.706 setrgbcolor
gsave
416.45 425.81 m
426.45 425.81 l
436.45 425.81 l
stroke
grestore
1.000 setlinewidth
0 setlinecap
gsave
/o {
gsave
newpath
translate
1.0 setlinewidth
1 setlinejoin

0 setlinecap

0 -3 m
0.795609 -3 1.55874 -2.683901 2.12132 -2.12132 c
2.683901 -1.55874 3 -0.795609 3 0 c
3 0.795609 2.683901 1.55874 2.12132 2.12132 c
1.55874 2.683901 0.795609 3 0 3 c
-0.795609 3 -1.55874 2.683901 -2.12132 2.12132 c
-2.683901 1.55874 -3 0.795609 -3 0 c
-3 -0.795609 -2.683901 -1.55874 -2.12132 -2.12132 c
-1.55874 -2.683901 -0.795609 -3 0 -3 c
cl

gsave
0.122 0.467 0.706 setrgbcolor
fill
grestore
stroke
grestore
} bind def
426.45 425.81 o
grestore
0.000 setgray
/DejaVuSans 10.000 selectfont
gsave

444.45 422.31 translate
0 rotate
0 0 m /A glyphshow
6.71582 0 m /c glyphshow
12.2139 0 m /t glyphshow
16.1348 0 m /u glyphshow
22.4727 0 m /a glyphshow
28.6006 0 m /l glyphshow
31.3789 0 m /space glyphshow
34.5576 0 m /D glyphshow
42.2578 0 m /a glyphshow
48.3857 0 m /t glyphshow
52.3066 0 m /a glyphshow
grestore
1.500 setlinewidth
2 setlinecap
1.000 0.498 0.055 setrgbcolor
gsave
416.45 411.138125 m
426.45 411.138125 l
436.45 411.138125 l
stroke
grestore
1.000 setlinewidth
0 setlinecap
gsave
/o {
gsave
newpath
translate
1.0 setlinewidth
1 setlinejoin

0 setlinecap

-3 -3 m
3 3 l
-3 3 m
3 -3 l

gsave
1.000 0.498 0.055 setrgbcolor
fill
grestore
stroke
grestore
} bind def
426.45 411.138 o
grestore
0.000 setgray
/DejaVuSans 10.000 selectfont
gsave

444.45 407.638 translate
0 rotate
0 0 m /A glyphshow
6.71582 0 m /d glyphshow
13.0635 0 m /a glyphshow
19.1914 0 m /b glyphshow
25.5391 0 m /o glyphshow
31.6572 0 m /o glyphshow
37.7754 0 m /s glyphshow
42.9854 0 m /t glyphshow
grestore
gsave
763.85 396.56 m
1067.60984 396.56 l
1067.60984 694.56 l
763.85 694.56 l
cl
1.000 setgray
fill
grestore
0.800 setlinewidth
gsave
/o {
gsave
newpath
translate
0.8 setlinewidth
1 setlinejoin

0 setlinecap

0 0 m
0 -3.5 l

gsave
0.000 setgray
fill
grestore
stroke
grestore
} bind def
835.793 396.56 o
grestore
/DejaVuSans 10.000 selectfont
gsave

823.074 381.966 translate
0 rotate
0 0 m /two glyphshow
6.3623 0 m /zero glyphshow
12.7246 0 m /zero glyphshow
19.0869 0 m /five glyphshow
grestore
gsave
/o {
gsave
newpath
translate
0.8 setlinewidth
1 setlinejoin

0 setlinecap

0 0 m
0 -3.5 l

gsave
0.000 setgray
fill
grestore
stroke
grestore
} bind def
908.463 396.56 o
grestore
/DejaVuSans 10.000 selectfont
gsave

895.744 381.966 translate
0 rotate
0 0 m /two glyphshow
6.3623 0 m /zero glyphshow
12.7246 0 m /one glyphshow
19.0869 0 m /zero glyphshow
grestore
gsave
/o {
gsave
newpath
translate
0.8 setlinewidth
1 setlinejoin

0 setlinecap

0 0 m
0 -3.5 l

gsave
0.000 setgray
fill
grestore
stroke
grestore
} bind def
981.133 396.56 o
grestore
/DejaVuSans 10.000 selectfont
gsave

968.414 381.966 translate
0 rotate
0 0 m /two glyphshow
6.3623 0 m /zero glyphshow
12.7246 0 m /one glyphshow
19.0869 0 m /five glyphshow
grestore
gsave
/o {
gsave
newpath
translate
0.8 setlinewidth
1 setlinejoin

0 setlinecap

0 0 m
0 -3.5 l

gsave
0.000 setgray
fill
grestore
stroke
grestore
} bind def
1053.8 396.56 o
grestore
/DejaVuSans 10.000 selectfont
gsave

1041.08 381.966 translate
0 rotate
0 0 m /two glyphshow
6.3623 0 m /zero glyphshow
12.7246 0 m /two glyphshow
19.0869 0 m /zero glyphshow
grestore
/DejaVuSans 10.000 selectfont
gsave

905.167 368.294 translate
0 rotate
0 0 m /Y glyphshow
4.7334 0 m /e glyphshow
10.8857 0 m /a glyphshow
17.0137 0 m /r glyphshow
grestore
gsave
/o {
gsave
newpath
translate
0.8 setlinewidth
1 setlinejoin

0 setlinecap

-0 0 m
-3.5 0 l

gsave
0.000 setgray
fill
grestore
stroke
grestore
} bind def
763.85 429.403 o
grestore
/DejaVuSans 10.000 selectfont
gsave

737.772 425.606 translate
0 rotate
0 0 m /one glyphshow
6.3623 0 m /five glyphshow
12.7246 0 m /zero glyphshow
grestore
gsave
/o {
gsave
newpath
translate
0.8 setlinewidth
1 setlinejoin

0 setlinecap

-0 0 m
-3.5 0 l

gsave
0.000 setgray
fill
grestore
stroke
grestore
} bind def
763.85 466.514 o
grestore
/DejaVuSans 10.000 selectfont
gsave

737.772 462.717 translate
0 rotate
0 0 m /two glyphshow
6.3623 0 m /zero glyphshow
12.7246 0 m /zero glyphshow
grestore
gsave
/o {
gsave
newpath
translate
0.8 setlinewidth
1 setlinejoin

0 setlinecap

-0 0 m
-3.5 0 l

gsave
0.000 setgray
fill
grestore
stroke
grestore
} bind def
763.85 503.625 o
grestore
/DejaVuSans 10.000 selectfont
gsave

737.772 499.828 translate
0 rotate
0 0 m /two glyphshow
6.3623 0 m /five glyphshow
12.7246 0 m /zero glyphshow
grestore
gsave
/o {
gsave
newpath
translate
0.8 setlinewidth
1 setlinejoin

0 setlinecap

-0 0 m
-3.5 0 l

gsave
0.000 setgray
fill
grestore
stroke
grestore
} bind def
763.85 540.736 o
grestore
/DejaVuSans 10.000 selectfont
gsave

737.772 536.939 translate
0 rotate
0 0 m /three glyphshow
6.3623 0 m /zero glyphshow
12.7246 0 m /zero glyphshow
grestore
gsave
/o {
gsave
newpath
translate
0.8 setlinewidth
1 setlinejoin

0 setlinecap

-0 0 m
-3.5 0 l

gsave
0.000 setgray
fill
grestore
stroke
grestore
} bind def
763.85 577.846 o
grestore
/DejaVuSans 10.000 selectfont
gsave

737.772 574.05 translate
0 rotate
0 0 m /three glyphshow
6.3623 0 m /five glyphshow
12.7246 0 m /zero glyphshow
grestore
gsave
/o {
gsave
newpath
translate
0.8 setlinewidth
1 setlinejoin

0 setlinecap

-0 0 m
-3.5 0 l

gsave
0.000 setgray
fill
grestore
stroke
grestore
} bind def
763.85 614.957 o
grestore
/DejaVuSans 10.000 selectfont
gsave

737.772 611.16 translate
0 rotate
0 0 m /four glyphshow
6.3623 0 m /zero glyphshow
12.7246 0 m /zero glyphshow
grestore
gsave
/o {
gsave
newpath
translate
0.8 setlinewidth
1 setlinejoin

0 setlinecap

-0 0 m
-3.5 0 l

gsave
0.000 setgray
fill
grestore
stroke
grestore
} bind def
763.85 652.068 o
grestore
/DejaVuSans 10.000 selectfont
gsave

737.772 648.271 translate
0 rotate
0 0 m /four glyphshow
6.3623 0 m /five glyphshow
12.7246 0 m /zero glyphshow
grestore
gsave
/o {
gsave
newpath
translate
0.8 setlinewidth
1 setlinejoin

0 setlinecap

-0 0 m
-3.5 0 l

gsave
0.000 setgray
fill
grestore
stroke
grestore
} bind def
763.85 689.179 o
grestore
/DejaVuSans 10.000 selectfont
gsave

737.772 685.382 translate
0 rotate
0 0 m /five glyphshow
6.3623 0 m /zero glyphshow
12.7246 0 m /zero glyphshow
grestore
/DejaVuSans 10.000 selectfont
gsave

731.694 494.591 translate
90 rotate
0 0 m /T glyphshow
4.6084 0 m /r glyphshow
8.46973 0 m /e glyphshow
14.6221 0 m /e glyphshow
20.7744 0 m /space glyphshow
23.9531 0 m /C glyphshow
30.9355 0 m /o glyphshow
37.0537 0 m /v glyphshow
42.9717 0 m /e glyphshow
49.124 0 m /r glyphshow
53.2354 0 m /space glyphshow
56.4141 0 m /L glyphshow
61.8604 0 m /o glyphshow
67.9785 0 m /s glyphshow
73.1885 0 m /s glyphshow
78.3984 0 m /space glyphshow
81.5771 0 m /parenleft glyphshow
85.4785 0 m /h glyphshow
91.8164 0 m /a glyphshow
97.9443 0 m /parenright glyphshow
grestore
1.500 setlinewidth
2 setlinecap
0.122 0.467 0.706 setrgbcolor
gsave
303.76 298 763.85 396.56 clipbox
777.657265 567.455392 m
792.191229 442.020772 l
806.725193 672.107945 l
821.259156 652.810311 l
835.79312 637.223761 l
850.327084 552.611059 l
864.861047 603.081793 l
879.395011 423.465355 l
893.928974 658.748045 l
908.462938 410.105455 l
922.996902 640.192628 l
937.530865 561.517659 l
952.064829 621.63721 l
966.598792 597.14406 l
981.132756 539.993375 l
995.66672 681.014545 l
1010.200683 528.860125 l
1024.734647 450.927372 l
1039.268611 503.624757 l
1053.802574 429.403088 l
stroke
grestore
1.000 setlinewidth
0 setlinecap
gsave
303.76 298 763.85 396.56 clipbox
/o {
gsave
newpath
translate
1.0 setlinewidth
1 setlinejoin

0 setlinecap

0 -3 m
0.795609 -3 1.55874 -2.683901 2.12132 -2.12132 c
2.683901 -1.55874 3 -0.795609 3 0 c
3 0.795609 2.683901 1.55874 2.12132 2.12132 c
1.55874 2.683901 0.795609 3 0 3 c
-0.795609 3 -1.55874 2.683901 -2.12132 2.12132 c
-2.683901 1.55874 -3 0.795609 -3 0 c
-3 -0.795609 -2.683901 -1.55874 -2.12132 -2.12132 c
-1.55874 -2.683901 -0.795609 -3 0 -3 c
cl

gsave
0.122 0.467 0.706 setrgbcolor
fill
grestore
stroke
grestore
} bind def
777.657 567.455 o
792.191 442.021 o
806.725 672.108 o
821.259 652.81 o
835.793 637.224 o
850.327 552.611 o
864.861 603.082 o
879.395 423.465 o
893.929 658.748 o
908.463 410.105 o
922.997 640.193 o
937.531 561.518 o
952.065 621.637 o
966.599 597.144 o
981.133 539.993 o
995.667 681.015 o
1010.2 528.86 o
1024.73 450.927 o
1039.27 503.625 o
1053.8 429.403 o
grestore
1.500 setlinewidth
2 setlinecap
1.000 0.498 0.055 setrgbcolor
gsave
303.76 298 763.85 396.56 clipbox
777.657265 589.252687 m
792.191229 469.018848 l
806.725193 642.938413 l
821.259156 648.098862 l
835.79312 636.287562 l
850.327084 540.658309 l
864.861047 612.150878 l
879.395011 446.056008 l
893.928974 662.989902 l
908.462938 429.853645 l
922.996902 612.971576 l
937.530865 550.119717 l
952.064829 621.66009 l
966.598792 591.915377 l
981.132756 547.914724 l
995.66672 663.68074 l
1010.200683 536.101427 l
1024.734647 454.53376 l
1039.268611 513.616075 l
1053.802574 423.948266 l
stroke
grestore
1.000 setlinewidth
0 setlinecap
gsave
303.76 298 763.85 396.56 clipbox
/o {
gsave
newpath
translate
1.0 setlinewidth
1 setlinejoin

0 setlinecap

-3 -3 m
3 3 l
-3 3 m
3 -3 l

gsave
1.000 0.498 0.055 setrgbcolor
fill
grestore
stroke
grestore
} bind def
777.657 589.253 o
792.191 469.019 o
806.725 642.938 o
821.259 648.099 o
835.793 636.288 o
850.327 540.658 o
864.861 612.151 o
879.395 446.056 o
893.929 662.99 o
908.463 429.854 o
922.997 612.972 o
937.531 550.12 o
952.065 621.66 o
966.599 591.915 o
981.133 547.915 o
995.667 663.681 o
1010.2 536.101 o
1024.73 454.534 o
1039.27 513.616 o
1053.8 423.948 o
grestore
0.800 setlinewidth
0 setlinejoin
2 setlinecap
0.000 setgray
gsave
763.85 396.56 m
763.85 694.56 l
stroke
grestore
gsave
1067.60984 396.56 m
1067.60984 694.56 l
stroke
grestore
gsave
763.85 396.56 m
1067.60984 396.56 l
stroke
grestore
gsave
763.85 694.56 m
1067.60984 694.56 l
stroke
grestore
/DejaVuSans 12.000 selectfont
gsave

904.464 700.56 translate
0 rotate
0 0 m /E glyphshow
7.58203 0 m /T glyphshow
14.9121 0 m /S glyphshow
grestore
1.000 setlinewidth
0 setlinecap
0.800 setgray
gsave
770.85 401.56 m
861.303125 401.56 l
862.636458 401.56 863.303125 402.226667 863.303125 403.56 c
863.303125 431.90375 l
863.303125 433.237083 862.636458 433.90375 861.303125 433.90375 c
770.85 433.90375 l
769.516667 433.90375 768.85 433.237083 768.85 431.90375 c
768.85 403.56 l
768.85 402.226667 769.516667 401.56 770.85 401.56 c
cl
gsave
1.000 setgray
fill
grestore
stroke
grestore
1.500 setlinewidth
1 setlinejoin
2 setlinecap
0.122 0.467 0.706 setrgbcolor
gsave
772.85 425.81 m
782.85 425.81 l
792.85 425.81 l
stroke
grestore
1.000 setlinewidth
0 setlinecap
gsave
/o {
gsave
newpath
translate
1.0 setlinewidth
1 setlinejoin

0 setlinecap

0 -3 m
0.795609 -3 1.55874 -2.683901 2.12132 -2.12132 c
2.683901 -1.55874 3 -0.795609 3 0 c
3 0.795609 2.683901 1.55874 2.12132 2.12132 c
1.55874 2.683901 0.795609 3 0 3 c
-0.795609 3 -1.55874 2.683901 -2.12132 2.12132 c
-2.683901 1.55874 -3 0.795609 -3 0 c
-3 -0.795609 -2.683901 -1.55874 -2.12132 -2.12132 c
-1.55874 -2.683901 -0.795609 -3 0 -3 c
cl

gsave
0.122 0.467 0.706 setrgbcolor
fill
grestore
stroke
grestore
} bind def
782.85 425.81 o
grestore
0.000 setgray
/DejaVuSans 10.000 selectfont
gsave

800.85 422.31 translate
0 rotate
0 0 m /A glyphshow
6.71582 0 m /c glyphshow
12.2139 0 m /t glyphshow
16.1348 0 m /u glyphshow
22.4727 0 m /a glyphshow
28.6006 0 m /l glyphshow
31.3789 0 m /space glyphshow
34.5576 0 m /D glyphshow
42.2578 0 m /a glyphshow
48.3857 0 m /t glyphshow
52.3066 0 m /a glyphshow
grestore
1.500 setlinewidth
2 setlinecap
1.000 0.498 0.055 setrgbcolor
gsave
772.85 411.138125 m
782.85 411.138125 l
792.85 411.138125 l
stroke
grestore
1.000 setlinewidth
0 setlinecap
gsave
/o {
gsave
newpath
translate
1.0 setlinewidth
1 setlinejoin

0 setlinecap

-3 -3 m
3 3 l
-3 3 m
3 -3 l

gsave
1.000 0.498 0.055 setrgbcolor
fill
grestore
stroke
grestore
} bind def
782.85 411.138 o
grestore
0.000 setgray
/DejaVuSans 10.000 selectfont
gsave

800.85 407.638 translate
0 rotate
0 0 m /E glyphshow
6.31836 0 m /T glyphshow
12.4268 0 m /S glyphshow
grestore
gsave
51.05 41.96 m
354.80984 41.96 l
354.80984 339.96 l
51.05 339.96 l
cl
1.000 setgray
fill
grestore
0.800 setlinewidth
gsave
/o {
gsave
newpath
translate
0.8 setlinewidth
1 setlinejoin

0 setlinecap

0 0 m
0 -3.5 l

gsave
0.000 setgray
fill
grestore
stroke
grestore
} bind def
122.993 41.96 o
grestore
/DejaVuSans 10.000 selectfont
gsave

110.274 27.3662 translate
0 rotate
0 0 m /two glyphshow
6.3623 0 m /zero glyphshow
12.7246 0 m /zero glyphshow
19.0869 0 m /five glyphshow
grestore
gsave
/o {
gsave
newpath
translate
0.8 setlinewidth
1 setlinejoin

0 setlinecap

0 0 m
0 -3.5 l

gsave
0.000 setgray
fill
grestore
stroke
grestore
} bind def
195.663 41.96 o
grestore
/DejaVuSans 10.000 selectfont
gsave

182.944 27.3662 translate
0 rotate
0 0 m /two glyphshow
6.3623 0 m /zero glyphshow
12.7246 0 m /one glyphshow
19.0869 0 m /zero glyphshow
grestore
gsave
/o {
gsave
newpath
translate
0.8 setlinewidth
1 setlinejoin

0 setlinecap

0 0 m
0 -3.5 l

gsave
0.000 setgray
fill
grestore
stroke
grestore
} bind def
268.333 41.96 o
grestore
/DejaVuSans 10.000 selectfont
gsave

255.614 27.3662 translate
0 rotate
0 0 m /two glyphshow
6.3623 0 m /zero glyphshow
12.7246 0 m /one glyphshow
19.0869 0 m /five glyphshow
grestore
gsave
/o {
gsave
newpath
translate
0.8 setlinewidth
1 setlinejoin

0 setlinecap

0 0 m
0 -3.5 l

gsave
0.000 setgray
fill
grestore
stroke
grestore
} bind def
341.003 41.96 o
grestore
/DejaVuSans 10.000 selectfont
gsave

328.284 27.3662 translate
0 rotate
0 0 m /two glyphshow
6.3623 0 m /zero glyphshow
12.7246 0 m /two glyphshow
19.0869 0 m /zero glyphshow
grestore
/DejaVuSans 10.000 selectfont
gsave

192.367 13.6944 translate
0 rotate
0 0 m /Y glyphshow
4.7334 0 m /e glyphshow
10.8857 0 m /a glyphshow
17.0137 0 m /r glyphshow
grestore
gsave
/o {
gsave
newpath
translate
0.8 setlinewidth
1 setlinejoin

0 setlinecap

-0 0 m
-3.5 0 l

gsave
0.000 setgray
fill
grestore
stroke
grestore
} bind def
51.05 54.8041 o
grestore
/DejaVuSans 10.000 selectfont
gsave

24.9719 51.0072 translate
0 rotate
0 0 m /one glyphshow
6.3623 0 m /zero glyphshow
12.7246 0 m /zero glyphshow
grestore
gsave
/o {
gsave
newpath
translate
0.8 setlinewidth
1 setlinejoin

0 setlinecap

-0 0 m
-3.5 0 l

gsave
0.000 setgray
fill
grestore
stroke
grestore
} bind def
51.05 120.328 o
grestore
/DejaVuSans 10.000 selectfont
gsave

24.9719 116.531 translate
0 rotate
0 0 m /two glyphshow
6.3623 0 m /zero glyphshow
12.7246 0 m /zero glyphshow
grestore
gsave
/o {
gsave
newpath
translate
0.8 setlinewidth
1 setlinejoin

0 setlinecap

-0 0 m
-3.5 0 l

gsave
0.000 setgray
fill
grestore
stroke
grestore
} bind def
51.05 185.852 o
grestore
/DejaVuSans 10.000 selectfont
gsave

24.9719 182.055 translate
0 rotate
0 0 m /three glyphshow
6.3623 0 m /zero glyphshow
12.7246 0 m /zero glyphshow
grestore
gsave
/o {
gsave
newpath
translate
0.8 setlinewidth
1 setlinejoin

0 setlinecap

-0 0 m
-3.5 0 l

gsave
0.000 setgray
fill
grestore
stroke
grestore
} bind def
51.05 251.376 o
grestore
/DejaVuSans 10.000 selectfont
gsave

24.9719 247.579 translate
0 rotate
0 0 m /four glyphshow
6.3623 0 m /zero glyphshow
12.7246 0 m /zero glyphshow
grestore
gsave
/o {
gsave
newpath
translate
0.8 setlinewidth
1 setlinejoin

0 setlinecap

-0 0 m
-3.5 0 l

gsave
0.000 setgray
fill
grestore
stroke
grestore
} bind def
51.05 316.9 o
grestore
/DejaVuSans 10.000 selectfont
gsave

24.9719 313.104 translate
0 rotate
0 0 m /five glyphshow
6.3623 0 m /zero glyphshow
12.7246 0 m /zero glyphshow
grestore
/DejaVuSans 10.000 selectfont
gsave

18.8938 139.991 translate
90 rotate
0 0 m /T glyphshow
4.6084 0 m /r glyphshow
8.46973 0 m /e glyphshow
14.6221 0 m /e glyphshow
20.7744 0 m /space glyphshow
23.9531 0 m /C glyphshow
30.9355 0 m /o glyphshow
37.0537 0 m /v glyphshow
42.9717 0 m /e glyphshow
49.124 0 m /r glyphshow
53.2354 0 m /space glyphshow
56.4141 0 m /L glyphshow
61.8604 0 m /o glyphshow
67.9785 0 m /s glyphshow
73.1885 0 m /s glyphshow
78.3984 0 m /space glyphshow
81.5771 0 m /parenleft glyphshow
85.4785 0 m /h glyphshow
91.8164 0 m /a glyphshow
97.9443 0 m /parenright glyphshow
grestore
1.500 setlinewidth
2 setlinecap
0.122 0.467 0.706 setrgbcolor
gsave
303.76 298 51.05 41.96 clipbox
64.857265 209.440945 m
79.391229 98.705255 l
93.925193 301.829893 l
108.459156 284.793633 l
122.99312 271.033577 l
137.527084 196.336129 l
152.061047 240.892502 l
166.595011 82.324236 l
181.128974 290.035559 l
195.662938 70.529902 l
210.196902 273.65454 l
224.730865 204.199019 l
239.264829 257.273521 l
253.798792 235.650575 l
268.332756 185.197036 l
282.86672 309.692782 l
297.400683 175.368425 l
311.934647 106.568145 l
326.468611 153.090239 l
341.002574 87.566162 l
stroke
grestore
1.000 setlinewidth
0 setlinecap
gsave
303.76 298 51.05 41.96 clipbox
/o {
gsave
newpath
translate
1.0 setlinewidth
1 setlinejoin

0 setlinecap

0 -3 m
0.795609 -3 1.55874 -2.683901 2.12132 -2.12132 c
2.683901 -1.55874 3 -0.795609 3 0 c
3 0.795609 2.683901 1.55874 2.12132 2.12132 c
1.55874 2.683901 0.795609 3 0 3 c
-0.795609 3 -1.55874 2.683901 -2.12132 2.12132 c
-2.683901 1.55874 -3 0.795609 -3 0 c
-3 -0.795609 -2.683901 -1.55874 -2.12132 -2.12132 c
-1.55874 -2.683901 -0.795609 -3 0 -3 c
cl

gsave
0.122 0.467 0.706 setrgbcolor
fill
grestore
stroke
grestore
} bind def
64.8573 209.441 o
79.3912 98.7053 o
93.9252 301.83 o
108.459 284.794 o
122.993 271.034 o
137.527 196.336 o
152.061 240.893 o
166.595 82.3242 o
181.129 290.036 o
195.663 70.5299 o
210.197 273.655 o
224.731 204.199 o
239.265 257.274 o
253.799 235.651 o
268.333 185.197 o
282.867 309.693 o
297.401 175.368 o
311.935 106.568 o
326.469 153.09 o
341.003 87.5662 o
grestore
1.500 setlinewidth
2 setlinecap
1.000 0.498 0.055 setrgbcolor
gsave
303.76 298 51.05 41.96 clipbox
64.857265 201.695031 m
79.391229 104.745128 l
93.925193 307.101695 l
108.459156 326.414545 l
122.99312 277.553882 l
137.527084 207.232679 l
152.061047 262.339223 l
166.595011 102.672516 l
181.128974 305.078346 l
195.662938 55.505455 l
210.196902 263.78972 l
224.730865 213.159843 l
239.264829 266.640547 l
253.798792 246.345333 l
268.332756 191.332475 l
282.86672 298.745946 l
297.400683 170.570787 l
311.934647 105.747901 l
326.468611 140.204948 l
341.002574 72.620795 l
stroke
grestore
1.000 setlinewidth
0 setlinecap
gsave
303.76 298 51.05 41.96 clipbox
/o {
gsave
newpath
translate
1.0 setlinewidth
1 setlinejoin

0 setlinecap

-3 -3 m
3 3 l
-3 3 m
3 -3 l

gsave
1.000 0.498 0.055 setrgbcolor
fill
grestore
stroke
grestore
} bind def
64.8573 201.695 o
79.3912 104.745 o
93.9252 307.102 o
108.459 326.415 o
122.993 277.554 o
137.527 207.233 o
152.061 262.339 o
166.595 102.673 o
181.129 305.078 o
195.663 55.5055 o
210.197 263.79 o
224.731 213.16 o
239.265 266.641 o
253.799 246.345 o
268.333 191.332 o
282.867 298.746 o
297.401 170.571 o
311.935 105.748 o
326.469 140.205 o
341.003 72.6208 o
grestore
0.800 setlinewidth
0 setlinejoin
2 setlinecap
0.000 setgray
gsave
51.05 41.96 m
51.05 339.96 l
stroke
grestore
gsave
354.80984 41.96 m
354.80984 339.96 l
stroke
grestore
gsave
51.05 41.96 m
354.80984 41.96 l
stroke
grestore
gsave
51.05 339.96 m
354.80984 339.96 l
stroke
grestore
/DejaVuSans 12.000 selectfont
gsave

179.758 345.96 translate
0 rotate
0 0 m /P glyphshow
6.98633 0 m /r glyphshow
11.6699 0 m /o glyphshow
19.0117 0 m /p glyphshow
26.6289 0 m /h glyphshow
34.2344 0 m /e glyphshow
41.6172 0 m /t glyphshow
grestore
1.000 setlinewidth
0 setlinecap
0.800 setgray
gsave
58.05 46.96 m
148.503125 46.96 l
149.836458 46.96 150.503125 47.626667 150.503125 48.96 c
150.503125 77.30375 l
150.503125 78.637083 149.836458 79.30375 148.503125 79.30375 c
58.05 79.30375 l
56.716667 79.30375 56.05 78.637083 56.05 77.30375 c
56.05 48.96 l
56.05 47.626667 56.716667 46.96 58.05 46.96 c
cl
gsave
1.000 setgray
fill
grestore
stroke
grestore
1.500 setlinewidth
1 setlinejoin
2 setlinecap
0.122 0.467 0.706 setrgbcolor
gsave
60.05 71.21 m
70.05 71.21 l
80.05 71.21 l
stroke
grestore
1.000 setlinewidth
0 setlinecap
gsave
/o {
gsave
newpath
translate
1.0 setlinewidth
1 setlinejoin

0 setlinecap

0 -3 m
0.795609 -3 1.55874 -2.683901 2.12132 -2.12132 c
2.683901 -1.55874 3 -0.795609 3 0 c
3 0.795609 2.683901 1.55874 2.12132 2.12132 c
1.55874 2.683901 0.795609 3 0 3 c
-0.795609 3 -1.55874 2.683901 -2.12132 2.12132 c
-2.683901 1.55874 -3 0.795609 -3 0 c
-3 -0.795609 -2.683901 -1.55874 -2.12132 -2.12132 c
-1.55874 -2.683901 -0.795609 -3 0 -3 c
cl

gsave
0.122 0.467 0.706 setrgbcolor
fill
grestore
stroke
grestore
} bind def
70.05 71.21 o
grestore
0.000 setgray
/DejaVuSans 10.000 selectfont
gsave

88.05 67.71 translate
0 rotate
0 0 m /A glyphshow
6.71582 0 m /c glyphshow
12.2139 0 m /t glyphshow
16.1348 0 m /u glyphshow
22.4727 0 m /a glyphshow
28.6006 0 m /l glyphshow
31.3789 0 m /space glyphshow
34.5576 0 m /D glyphshow
42.2578 0 m /a glyphshow
48.3857 0 m /t glyphshow
52.3066 0 m /a glyphshow
grestore
1.500 setlinewidth
2 setlinecap
1.000 0.498 0.055 setrgbcolor
gsave
60.05 56.538125 m
70.05 56.538125 l
80.05 56.538125 l
stroke
grestore
1.000 setlinewidth
0 setlinecap
gsave
/o {
gsave
newpath
translate
1.0 setlinewidth
1 setlinejoin

0 setlinecap

-3 -3 m
3 3 l
-3 3 m
3 -3 l

gsave
1.000 0.498 0.055 setrgbcolor
fill
grestore
stroke
grestore
} bind def
70.05 56.5381 o
grestore
0.000 setgray
/DejaVuSans 10.000 selectfont
gsave

88.05 53.0381 translate
0 rotate
0 0 m /P glyphshow
5.90527 0 m /r glyphshow
9.7666 0 m /o glyphshow
15.8848 0 m /p glyphshow
22.2324 0 m /h glyphshow
28.5703 0 m /e glyphshow
34.7227 0 m /t glyphshow
grestore
gsave
407.45 41.96 m
711.20984 41.96 l
711.20984 339.96 l
407.45 339.96 l
cl
1.000 setgray
fill
grestore
0.800 setlinewidth
gsave
/o {
gsave
newpath
translate
0.8 setlinewidth
1 setlinejoin

0 setlinecap

0 0 m
0 -3.5 l

gsave
0.000 setgray
fill
grestore
stroke
grestore
} bind def
479.393 41.96 o
grestore
/DejaVuSans 10.000 selectfont
gsave

466.674 27.3662 translate
0 rotate
0 0 m /two glyphshow
6.3623 0 m /zero glyphshow
12.7246 0 m /zero glyphshow
19.0869 0 m /five glyphshow
grestore
gsave
/o {
gsave
newpath
translate
0.8 setlinewidth
1 setlinejoin

0 setlinecap

0 0 m
0 -3.5 l

gsave
0.000 setgray
fill
grestore
stroke
grestore
} bind def
552.063 41.96 o
grestore
/DejaVuSans 10.000 selectfont
gsave

539.344 27.3662 translate
0 rotate
0 0 m /two glyphshow
6.3623 0 m /zero glyphshow
12.7246 0 m /one glyphshow
19.0869 0 m /zero glyphshow
grestore
gsave
/o {
gsave
newpath
translate
0.8 setlinewidth
1 setlinejoin

0 setlinecap

0 0 m
0 -3.5 l

gsave
0.000 setgray
fill
grestore
stroke
grestore
} bind def
624.733 41.96 o
grestore
/DejaVuSans 10.000 selectfont
gsave

612.014 27.3662 translate
0 rotate
0 0 m /two glyphshow
6.3623 0 m /zero glyphshow
12.7246 0 m /one glyphshow
19.0869 0 m /five glyphshow
grestore
gsave
/o {
gsave
newpath
translate
0.8 setlinewidth
1 setlinejoin

0 setlinecap

0 0 m
0 -3.5 l

gsave
0.000 setgray
fill
grestore
stroke
grestore
} bind def
697.403 41.96 o
grestore
/DejaVuSans 10.000 selectfont
gsave

684.684 27.3662 translate
0 rotate
0 0 m /two glyphshow
6.3623 0 m /zero glyphshow
12.7246 0 m /two glyphshow
19.0869 0 m /zero glyphshow
grestore
/DejaVuSans 10.000 selectfont
gsave

548.767 13.6944 translate
0 rotate
0 0 m /Y glyphshow
4.7334 0 m /e glyphshow
10.8857 0 m /a glyphshow
17.0137 0 m /r glyphshow
grestore
gsave
/o {
gsave
newpath
translate
0.8 setlinewidth
1 setlinejoin

0 setlinecap

-0 0 m
-3.5 0 l

gsave
0.000 setgray
fill
grestore
stroke
grestore
} bind def
407.45 67.8767 o
grestore
/DejaVuSans 10.000 selectfont
gsave

381.372 64.0798 translate
0 rotate
0 0 m /one glyphshow
6.3623 0 m /zero glyphshow
12.7246 0 m /zero glyphshow
grestore
gsave
/o {
gsave
newpath
translate
0.8 setlinewidth
1 setlinejoin

0 setlinecap

-0 0 m
-3.5 0 l

gsave
0.000 setgray
fill
grestore
stroke
grestore
} bind def
407.45 128.022 o
grestore
/DejaVuSans 10.000 selectfont
gsave

381.372 124.225 translate
0 rotate
0 0 m /two glyphshow
6.3623 0 m /zero glyphshow
12.7246 0 m /zero glyphshow
grestore
gsave
/o {
gsave
newpath
translate
0.8 setlinewidth
1 setlinejoin

0 setlinecap

-0 0 m
-3.5 0 l

gsave
0.000 setgray
fill
grestore
stroke
grestore
} bind def
407.45 188.167 o
grestore
/DejaVuSans 10.000 selectfont
gsave

381.372 184.37 translate
0 rotate
0 0 m /three glyphshow
6.3623 0 m /zero glyphshow
12.7246 0 m /zero glyphshow
grestore
gsave
/o {
gsave
newpath
translate
0.8 setlinewidth
1 setlinejoin

0 setlinecap

-0 0 m
-3.5 0 l

gsave
0.000 setgray
fill
grestore
stroke
grestore
} bind def
407.45 248.312 o
grestore
/DejaVuSans 10.000 selectfont
gsave

381.372 244.515 translate
0 rotate
0 0 m /four glyphshow
6.3623 0 m /zero glyphshow
12.7246 0 m /zero glyphshow
grestore
gsave
/o {
gsave
newpath
translate
0.8 setlinewidth
1 setlinejoin

0 setlinecap

-0 0 m
-3.5 0 l

gsave
0.000 setgray
fill
grestore
stroke
grestore
} bind def
407.45 308.457 o
grestore
/DejaVuSans 10.000 selectfont
gsave

381.372 304.66 translate
0 rotate
0 0 m /five glyphshow
6.3623 0 m /zero glyphshow
12.7246 0 m /zero glyphshow
grestore
/DejaVuSans 10.000 selectfont
gsave

375.294 139.991 translate
90 rotate
0 0 m /T glyphshow
4.6084 0 m /r glyphshow
8.46973 0 m /e glyphshow
14.6221 0 m /e glyphshow
20.7744 0 m /space glyphshow
23.9531 0 m /C glyphshow
30.9355 0 m /o glyphshow
37.0537 0 m /v glyphshow
42.9717 0 m /e glyphshow
49.124 0 m /r glyphshow
53.2354 0 m /space glyphshow
56.4141 0 m /L glyphshow
61.8604 0 m /o glyphshow
67.9785 0 m /s glyphshow
73.1885 0 m /s glyphshow
78.3984 0 m /space glyphshow
81.5771 0 m /parenleft glyphshow
85.4785 0 m /h glyphshow
91.8164 0 m /a glyphshow
97.9443 0 m /parenright glyphshow
grestore
1.500 setlinewidth
2 setlinecap
0.122 0.467 0.706 setrgbcolor
gsave
303.76 298 407.45 41.96 clipbox
421.257265 209.819144 m
435.791229 108.17391 l
450.325193 294.623748 l
464.859156 278.98602 l
479.39312 266.355547 l
493.927084 197.790122 l
508.461047 238.688797 l
522.995011 93.137632 l
537.528974 283.797628 l
552.062938 82.311513 l
566.596902 268.761351 l
581.130865 205.007535 l
595.664829 253.725074 l
610.198792 233.877188 l
624.732756 187.565454 l
639.26672 301.841161 l
653.800683 178.543687 l
668.334647 115.391323 l
682.868611 158.09435 l
697.402574 97.949241 l
stroke
grestore
1.000 setlinewidth
0 setlinecap
gsave
303.76 298 407.45 41.96 clipbox
/o {
gsave
newpath
translate
1.0 setlinewidth
1 setlinejoin

0 setlinecap

0 -3 m
0.795609 -3 1.55874 -2.683901 2.12132 -2.12132 c
2.683901 -1.55874 3 -0.795609 3 0 c
3 0.795609 2.683901 1.55874 2.12132 2.12132 c
1.55874 2.683901 0.795609 3 0 3 c
-0.795609 3 -1.55874 2.683901 -2.12132 2.12132 c
-2.683901 1.55874 -3 0.795609 -3 0 c
-3 -0.795609 -2.683901 -1.55874 -2.12132 -2.12132 c
-1.55874 -2.683901 -0.795609 -3 0 -3 c
cl

gsave
0.122 0.467 0.706 setrgbcolor
fill
grestore
stroke
grestore
} bind def
421.257 209.819 o
435.791 108.174 o
450.325 294.624 o
464.859 278.986 o
479.393 266.356 o
493.927 197.79 o
508.461 238.689 o
522.995 93.1376 o
537.529 283.798 o
552.063 82.3115 o
566.597 268.761 o
581.131 205.008 o
595.665 253.725 o
610.199 233.877 o
624.733 187.565 o
639.267 301.841 o
653.801 178.544 o
668.335 115.391 o
682.869 158.094 o
697.403 97.9492 o
grestore
1.500 setlinewidth
2 setlinecap
1.000 0.498 0.055 setrgbcolor
gsave
303.76 298 407.45 41.96 clipbox
421.257265 206.585491 m
435.791229 87.692923 l
450.325193 326.414545 l
464.859156 256.856677 l
479.39312 295.57395 l
493.927084 244.312902 l
508.461047 244.255031 l
522.995011 112.113267 l
537.528974 278.701312 l
552.062938 55.505455 l
566.596902 289.017391 l
581.130865 253.489321 l
595.664829 267.408809 l
610.198792 203.813885 l
624.732756 182.586294 l
639.26672 300.32935 l
653.800683 175.194575 l
668.334647 134.064425 l
682.868611 134.494438 l
697.402574 108.569081 l
stroke
grestore
1.000 setlinewidth
0 setlinecap
gsave
303.76 298 407.45 41.96 clipbox
/o {
gsave
newpath
translate
1.0 setlinewidth
1 setlinejoin

0 setlinecap

-3 -3 m
3 3 l
-3 3 m
3 -3 l

gsave
1.000 0.498 0.055 setrgbcolor
fill
grestore
stroke
grestore
} bind def
421.257 206.585 o
435.791 87.6929 o
450.325 326.415 o
464.859 256.857 o
479.393 295.574 o
493.927 244.313 o
508.461 244.255 o
522.995 112.113 o
537.529 278.701 o
552.063 55.5055 o
566.597 289.017 o
581.131 253.489 o
595.665 267.409 o
610.199 203.814 o
624.733 182.586 o
639.267 300.329 o
653.801 175.195 o
668.335 134.064 o
682.869 134.494 o
697.403 108.569 o
grestore
0.800 setlinewidth
0 setlinejoin
2 setlinecap
0.000 setgray
gsave
407.45 41.96 m
407.45 339.96 l
stroke
grestore
gsave
711.20984 41.96 m
711.20984 339.96 l
stroke
grestore
gsave
407.45 41.96 m
711.20984 41.96 l
stroke
grestore
gsave
407.45 339.96 m
711.20984 339.96 l
stroke
grestore
/DejaVuSans 12.000 selectfont
gsave

536.064 345.96 translate
0 rotate
0 0 m /S glyphshow
7.86719 0 m /A glyphshow
16.0762 0 m /R glyphshow
24.4141 0 m /I glyphshow
27.9531 0 m /M glyphshow
38.3066 0 m /A glyphshow
grestore
1.000 setlinewidth
0 setlinecap
0.800 setgray
gsave
613.756715 302.61625 m
704.20984 302.61625 l
705.543173 302.61625 706.20984 303.282917 706.20984 304.61625 c
706.20984 332.96 l
706.20984 334.293333 705.543173 334.96 704.20984 334.96 c
613.756715 334.96 l
612.423381 334.96 611.756715 334.293333 611.756715 332.96 c
611.756715 304.61625 l
611.756715 303.282917 612.423381 302.61625 613.756715 302.61625 c
cl
gsave
1.000 setgray
fill
grestore
stroke
grestore
1.500 setlinewidth
1 setlinejoin
2 setlinecap
0.122 0.467 0.706 setrgbcolor
gsave
615.756715 326.86625 m
625.756715 326.86625 l
635.756715 326.86625 l
stroke
grestore
1.000 setlinewidth
0 setlinecap
gsave
/o {
gsave
newpath
translate
1.0 setlinewidth
1 setlinejoin

0 setlinecap

0 -3 m
0.795609 -3 1.55874 -2.683901 2.12132 -2.12132 c
2.683901 -1.55874 3 -0.795609 3 0 c
3 0.795609 2.683901 1.55874 2.12132 2.12132 c
1.55874 2.683901 0.795609 3 0 3 c
-0.795609 3 -1.55874 2.683901 -2.12132 2.12132 c
-2.683901 1.55874 -3 0.795609 -3 0 c
-3 -0.795609 -2.683901 -1.55874 -2.12132 -2.12132 c
-1.55874 -2.683901 -0.795609 -3 0 -3 c
cl

gsave
0.122 0.467 0.706 setrgbcolor
fill
grestore
stroke
grestore
} bind def
625.757 326.866 o
grestore
0.000 setgray
/DejaVuSans 10.000 selectfont
gsave

643.757 323.366 translate
0 rotate
0 0 m /A glyphshow
6.71582 0 m /c glyphshow
12.2139 0 m /t glyphshow
16.1348 0 m /u glyphshow
22.4727 0 m /a glyphshow
28.6006 0 m /l glyphshow
31.3789 0 m /space glyphshow
34.5576 0 m /D glyphshow
42.2578 0 m /a glyphshow
48.3857 0 m /t glyphshow
52.3066 0 m /a glyphshow
grestore
1.500 setlinewidth
2 setlinecap
1.000 0.498 0.055 setrgbcolor
gsave
615.756715 312.194375 m
625.756715 312.194375 l
635.756715 312.194375 l
stroke
grestore
1.000 setlinewidth
0 setlinecap
gsave
/o {
gsave
newpath
translate
1.0 setlinewidth
1 setlinejoin

0 setlinecap

-3 -3 m
3 3 l
-3 3 m
3 -3 l

gsave
1.000 0.498 0.055 setrgbcolor
fill
grestore
stroke
grestore
} bind def
625.757 312.194 o
grestore
0.000 setgray
/DejaVuSans 10.000 selectfont
gsave

643.757 308.694 translate
0 rotate
0 0 m /S glyphshow
6.47266 0 m /A glyphshow
13.3135 0 m /R glyphshow
20.2617 0 m /I glyphshow
23.2109 0 m /M glyphshow
31.8389 0 m /A glyphshow
grestore
gsave
763.85 41.96 m
1067.60984 41.96 l
1067.60984 339.96 l
763.85 339.96 l
cl
1.000 setgray
fill
grestore
0.800 setlinewidth
gsave
/o {
gsave
newpath
translate
0.8 setlinewidth
1 setlinejoin

0 setlinecap

0 0 m
0 -3.5 l

gsave
0.000 setgray
fill
grestore
stroke
grestore
} bind def
835.793 41.96 o
grestore
/DejaVuSans 10.000 selectfont
gsave

823.074 27.3662 translate
0 rotate
0 0 m /two glyphshow
6.3623 0 m /zero glyphshow
12.7246 0 m /zero glyphshow
19.0869 0 m /five glyphshow
grestore
gsave
/o {
gsave
newpath
translate
0.8 setlinewidth
1 setlinejoin

0 setlinecap

0 0 m
0 -3.5 l

gsave
0.000 setgray
fill
grestore
stroke
grestore
} bind def
908.463 41.96 o
grestore
/DejaVuSans 10.000 selectfont
gsave

895.744 27.3662 translate
0 rotate
0 0 m /two glyphshow
6.3623 0 m /zero glyphshow
12.7246 0 m /one glyphshow
19.0869 0 m /zero glyphshow
grestore
gsave
/o {
gsave
newpath
translate
0.8 setlinewidth
1 setlinejoin

0 setlinecap

0 0 m
0 -3.5 l

gsave
0.000 setgray
fill
grestore
stroke
grestore
} bind def
981.133 41.96 o
grestore
/DejaVuSans 10.000 selectfont
gsave

968.414 27.3662 translate
0 rotate
0 0 m /two glyphshow
6.3623 0 m /zero glyphshow
12.7246 0 m /one glyphshow
19.0869 0 m /five glyphshow
grestore
gsave
/o {
gsave
newpath
translate
0.8 setlinewidth
1 setlinejoin

0 setlinecap

0 0 m
0 -3.5 l

gsave
0.000 setgray
fill
grestore
stroke
grestore
} bind def
1053.8 41.96 o
grestore
/DejaVuSans 10.000 selectfont
gsave

1041.08 27.3662 translate
0 rotate
0 0 m /two glyphshow
6.3623 0 m /zero glyphshow
12.7246 0 m /two glyphshow
19.0869 0 m /zero glyphshow
grestore
/DejaVuSans 10.000 selectfont
gsave

905.167 13.6944 translate
0 rotate
0 0 m /Y glyphshow
4.7334 0 m /e glyphshow
10.8857 0 m /a glyphshow
17.0137 0 m /r glyphshow
grestore
gsave
/o {
gsave
newpath
translate
0.8 setlinewidth
1 setlinejoin

0 setlinecap

-0 0 m
-3.5 0 l

gsave
0.000 setgray
fill
grestore
stroke
grestore
} bind def
763.85 53.2653 o
grestore
/DejaVuSans 10.000 selectfont
gsave

737.772 49.4684 translate
0 rotate
0 0 m /one glyphshow
6.3623 0 m /zero glyphshow
12.7246 0 m /zero glyphshow
grestore
gsave
/o {
gsave
newpath
translate
0.8 setlinewidth
1 setlinejoin

0 setlinecap

-0 0 m
-3.5 0 l

gsave
0.000 setgray
fill
grestore
stroke
grestore
} bind def
763.85 88.3355 o
grestore
/DejaVuSans 10.000 selectfont
gsave

737.772 84.5386 translate
0 rotate
0 0 m /one glyphshow
6.3623 0 m /five glyphshow
12.7246 0 m /zero glyphshow
grestore
gsave
/o {
gsave
newpath
translate
0.8 setlinewidth
1 setlinejoin

0 setlinecap

-0 0 m
-3.5 0 l

gsave
0.000 setgray
fill
grestore
stroke
grestore
} bind def
763.85 123.406 o
grestore
/DejaVuSans 10.000 selectfont
gsave

737.772 119.609 translate
0 rotate
0 0 m /two glyphshow
6.3623 0 m /zero glyphshow
12.7246 0 m /zero glyphshow
grestore
gsave
/o {
gsave
newpath
translate
0.8 setlinewidth
1 setlinejoin

0 setlinecap

-0 0 m
-3.5 0 l

gsave
0.000 setgray
fill
grestore
stroke
grestore
} bind def
763.85 158.476 o
grestore
/DejaVuSans 10.000 selectfont
gsave

737.772 154.679 translate
0 rotate
0 0 m /two glyphshow
6.3623 0 m /five glyphshow
12.7246 0 m /zero glyphshow
grestore
gsave
/o {
gsave
newpath
translate
0.8 setlinewidth
1 setlinejoin

0 setlinecap

-0 0 m
-3.5 0 l

gsave
0.000 setgray
fill
grestore
stroke
grestore
} bind def
763.85 193.546 o
grestore
/DejaVuSans 10.000 selectfont
gsave

737.772 189.749 translate
0 rotate
0 0 m /three glyphshow
6.3623 0 m /zero glyphshow
12.7246 0 m /zero glyphshow
grestore
gsave
/o {
gsave
newpath
translate
0.8 setlinewidth
1 setlinejoin

0 setlinecap

-0 0 m
-3.5 0 l

gsave
0.000 setgray
fill
grestore
stroke
grestore
} bind def
763.85 228.616 o
grestore
/DejaVuSans 10.000 selectfont
gsave

737.772 224.819 translate
0 rotate
0 0 m /three glyphshow
6.3623 0 m /five glyphshow
12.7246 0 m /zero glyphshow
grestore
gsave
/o {
gsave
newpath
translate
0.8 setlinewidth
1 setlinejoin

0 setlinecap

-0 0 m
-3.5 0 l

gsave
0.000 setgray
fill
grestore
stroke
grestore
} bind def
763.85 263.686 o
grestore
/DejaVuSans 10.000 selectfont
gsave

737.772 259.89 translate
0 rotate
0 0 m /four glyphshow
6.3623 0 m /zero glyphshow
12.7246 0 m /zero glyphshow
grestore
gsave
/o {
gsave
newpath
translate
0.8 setlinewidth
1 setlinejoin

0 setlinecap

-0 0 m
-3.5 0 l

gsave
0.000 setgray
fill
grestore
stroke
grestore
} bind def
763.85 298.757 o
grestore
/DejaVuSans 10.000 selectfont
gsave

737.772 294.96 translate
0 rotate
0 0 m /four glyphshow
6.3623 0 m /five glyphshow
12.7246 0 m /zero glyphshow
grestore
gsave
/o {
gsave
newpath
translate
0.8 setlinewidth
1 setlinejoin

0 setlinecap

-0 0 m
-3.5 0 l

gsave
0.000 setgray
fill
grestore
stroke
grestore
} bind def
763.85 333.827 o
grestore
/DejaVuSans 10.000 selectfont
gsave

737.772 330.03 translate
0 rotate
0 0 m /five glyphshow
6.3623 0 m /zero glyphshow
12.7246 0 m /zero glyphshow
grestore
/DejaVuSans 10.000 selectfont
gsave

731.694 139.991 translate
90 rotate
0 0 m /T glyphshow
4.6084 0 m /r glyphshow
8.46973 0 m /e glyphshow
14.6221 0 m /e glyphshow
20.7744 0 m /space glyphshow
23.9531 0 m /C glyphshow
30.9355 0 m /o glyphshow
37.0537 0 m /v glyphshow
42.9717 0 m /e glyphshow
49.124 0 m /r glyphshow
53.2354 0 m /space glyphshow
56.4141 0 m /L glyphshow
61.8604 0 m /o glyphshow
67.9785 0 m /s glyphshow
73.1885 0 m /s glyphshow
78.3984 0 m /space glyphshow
81.5771 0 m /parenleft glyphshow
85.4785 0 m /h glyphshow
91.8164 0 m /a glyphshow
97.9443 0 m /parenright glyphshow
grestore
1.500 setlinewidth
2 setlinecap
0.122 0.467 0.706 setrgbcolor
gsave
303.76 298 763.85 41.96 clipbox
777.657265 218.796565 m
792.191229 100.259349 l
806.725193 317.694479 l
821.259156 299.457984 l
835.79312 284.728508 l
850.327084 204.768492 l
864.861047 252.46394 l
879.395011 82.724257 l
893.928974 305.069214 l
908.462938 70.098992 l
922.996902 287.534122 l
937.530865 213.185336 l
952.064829 269.999031 l
966.598792 246.852711 l
981.132756 192.84463 l
995.66672 326.111323 l
1010.200683 182.323575 l
1024.734647 108.676192 l
1039.268611 158.475851 l
1053.802574 88.335487 l
stroke
grestore
1.000 setlinewidth
0 setlinecap
gsave
303.76 298 763.85 41.96 clipbox
/o {
gsave
newpath
translate
1.0 setlinewidth
1 setlinejoin

0 setlinecap

0 -3 m
0.795609 -3 1.55874 -2.683901 2.12132 -2.12132 c
2.683901 -1.55874 3 -0.795609 3 0 c
3 0.795609 2.683901 1.55874 2.12132 2.12132 c
1.55874 2.683901 0.795609 3 0 3 c
-0.795609 3 -1.55874 2.683901 -2.12132 2.12132 c
-2.683901 1.55874 -3 0.795609 -3 0 c
-3 -0.795609 -2.683901 -1.55874 -2.12132 -2.12132 c
-1.55874 -2.683901 -0.795609 -3 0 -3 c
cl

gsave
0.122 0.467 0.706 setrgbcolor
fill
grestore
stroke
grestore
} bind def
777.657 218.797 o
792.191 100.259 o
806.725 317.694 o
821.259 299.458 o
835.793 284.729 o
850.327 204.768 o
864.861 252.464 o
879.395 82.7243 o
893.929 305.069 o
908.463 70.099 o
922.997 287.534 o
937.531 213.185 o
952.065 269.999 o
966.599 246.853 o
981.133 192.845 o
995.667 326.111 o
1010.2 182.324 o
1024.73 108.676 o
1039.27 158.476 o
1053.8 88.3355 o
grestore
1.500 setlinewidth
2 setlinecap
1.000 0.498 0.055 setrgbcolor
gsave
303.76 298 763.85 41.96 clipbox
777.657265 215.666213 m
792.191229 88.212697 l
806.725193 326.414545 l
821.259156 290.341533 l
835.79312 281.12409 l
850.327084 191.522258 l
864.861047 234.99824 l
879.395011 84.010827 l
893.928974 290.848081 l
908.462938 55.505455 l
922.996902 291.743923 l
937.530865 215.01397 l
952.064829 267.156807 l
966.598792 248.559873 l
981.132756 219.078887 l
995.66672 318.62749 l
1010.200683 180.053004 l
1024.734647 115.600151 l
1039.268611 145.620842 l
1053.802574 74.743905 l
stroke
grestore
1.000 setlinewidth
0 setlinecap
gsave
303.76 298 763.85 41.96 clipbox
/o {
gsave
newpath
translate
1.0 setlinewidth
1 setlinejoin

0 setlinecap

-3 -3 m
3 3 l
-3 3 m
3 -3 l

gsave
1.000 0.498 0.055 setrgbcolor
fill
grestore
stroke
grestore
} bind def
777.657 215.666 o
792.191 88.2127 o
806.725 326.415 o
821.259 290.342 o
835.793 281.124 o
850.327 191.522 o
864.861 234.998 o
879.395 84.0108 o
893.929 290.848 o
908.463 55.5055 o
922.997 291.744 o
937.531 215.014 o
952.065 267.157 o
966.599 248.56 o
981.133 219.079 o
995.667 318.627 o
1010.2 180.053 o
1024.73 115.6 o
1039.27 145.621 o
1053.8 74.7439 o
grestore
0.800 setlinewidth
0 setlinejoin
2 setlinecap
0.000 setgray
gsave
763.85 41.96 m
763.85 339.96 l
stroke
grestore
gsave
1067.60984 41.96 m
1067.60984 339.96 l
stroke
grestore
gsave
763.85 41.96 m
1067.60984 41.96 l
stroke
grestore
gsave
763.85 339.96 m
1067.60984 339.96 l
stroke
grestore
/DejaVuSans 12.000 selectfont
gsave

886.808 345.96 translate
0 rotate
0 0 m /L glyphshow
6.68555 0 m /i glyphshow
10.0195 0 m /g glyphshow
17.6367 0 m /h glyphshow
25.2422 0 m /t glyphshow
29.9473 0 m /G glyphshow
39.2461 0 m /B glyphshow
47.4785 0 m /M glyphshow
grestore
1.000 setlinewidth
0 setlinecap
0.800 setgray
gsave
770.85 46.96 m
861.303125 46.96 l
862.636458 46.96 863.303125 47.626667 863.303125 48.96 c
863.303125 77.30375 l
863.303125 78.637083 862.636458 79.30375 861.303125 79.30375 c
770.85 79.30375 l
769.516667 79.30375 768.85 78.637083 768.85 77.30375 c
768.85 48.96 l
768.85 47.626667 769.516667 46.96 770.85 46.96 c
cl
gsave
1.000 setgray
fill
grestore
stroke
grestore
1.500 setlinewidth
1 setlinejoin
2 setlinecap
0.122 0.467 0.706 setrgbcolor
gsave
772.85 71.21 m
782.85 71.21 l
792.85 71.21 l
stroke
grestore
1.000 setlinewidth
0 setlinecap
gsave
/o {
gsave
newpath
translate
1.0 setlinewidth
1 setlinejoin

0 setlinecap

0 -3 m
0.795609 -3 1.55874 -2.683901 2.12132 -2.12132 c
2.683901 -1.55874 3 -0.795609 3 0 c
3 0.795609 2.683901 1.55874 2.12132 2.12132 c
1.55874 2.683901 0.795609 3 0 3 c
-0.795609 3 -1.55874 2.683901 -2.12132 2.12132 c
-2.683901 1.55874 -3 0.795609 -3 0 c
-3 -0.795609 -2.683901 -1.55874 -2.12132 -2.12132 c
-1.55874 -2.683901 -0.795609 -3 0 -3 c
cl

gsave
0.122 0.467 0.706 setrgbcolor
fill
grestore
stroke
grestore
} bind def
782.85 71.21 o
grestore
0.000 setgray
/DejaVuSans 10.000 selectfont
gsave

800.85 67.71 translate
0 rotate
0 0 m /A glyphshow
6.71582 0 m /c glyphshow
12.2139 0 m /t glyphshow
16.1348 0 m /u glyphshow
22.4727 0 m /a glyphshow
28.6006 0 m /l glyphshow
31.3789 0 m /space glyphshow
34.5576 0 m /D glyphshow
42.2578 0 m /a glyphshow
48.3857 0 m /t glyphshow
52.3066 0 m /a glyphshow
grestore
1.500 setlinewidth
2 setlinecap
1.000 0.498 0.055 setrgbcolor
gsave
772.85 56.538125 m
782.85 56.538125 l
792.85 56.538125 l
stroke
grestore
1.000 setlinewidth
0 setlinecap
gsave
/o {
gsave
newpath
translate
1.0 setlinewidth
1 setlinejoin

0 setlinecap

-3 -3 m
3 3 l
-3 3 m
3 -3 l

gsave
1.000 0.498 0.055 setrgbcolor
fill
grestore
stroke
grestore
} bind def
782.85 56.5381 o
grestore
0.000 setgray
/DejaVuSans 10.000 selectfont
gsave

800.85 53.0381 translate
0 rotate
0 0 m /L glyphshow
5.57129 0 m /i glyphshow
8.34961 0 m /g glyphshow
14.6973 0 m /h glyphshow
21.0352 0 m /t glyphshow
24.9561 0 m /G glyphshow
32.7051 0 m /B glyphshow
39.5654 0 m /M glyphshow
grestore

end
showpage
