%!PS-Adobe-3.0 EPSF-3.0
%%Title: model_comparison.eps
%%Creator: Matplotlib v3.7.1, https://matplotlib.org/
%%CreationDate: Wed Aug 23 13:31:08 2023
%%Orientation: portrait
%%BoundingBox: 48 233 564 559
%%HiResBoundingBox: 48.075937 233.009625 563.924062 558.990375
%%EndComments
%%BeginProlog
/mpldict 11 dict def
mpldict begin
/_d { bind def } bind def
/m { moveto } _d
/l { lineto } _d
/r { rlineto } _d
/c { curveto } _d
/cl { closepath } _d
/ce { closepath eofill } _d
/box {
      m
      1 index 0 r
      0 exch r
      neg 0 r
      cl
    } _d
/clipbox {
      box
      clip
      newpath
    } _d
/sc { setcachedevice } _d
%!PS-Adobe-3.0 Resource-Font
%%Creator: Converted from TrueType to Type 3 by Matplotlib.
10 dict begin
/FontName /DejaVuSans def
/PaintType 0 def
/FontMatrix [0.00048828125 0 0 0.00048828125 0 0] def
/FontBBox [-2090 -948 3673 2524] def
/FontType 3 def
/Encoding [/space /percent /parenleft /parenright /period /zero /one /two /three /four /five /six /seven /eight /nine /A /C /M /N /R /T /V /a /b /c /d /e /f /i /k /l /m /n /o /p /r /s /t /u /y] def
/CharStrings 41 dict dup begin
/.notdef 0 def
/space{651 0 0 0 0 0 sc
ce} _d
/percent{1946 0 113 -29 1833 1520 sc
1489 657 m
1431 657 1385 632 1352 583 c
1319 534 1303 465 1303 377 c
1303 290 1319 222 1352 172 c
1385 123 1431 98 1489 98 c
1546 98 1590 123 1623 172 c
1656 222 1673 290 1673 377 c
1673 464 1656 533 1623 582 c
1590 632 1546 657 1489 657 c

1489 784 m
1594 784 1678 747 1740 674 c
1802 601 1833 502 1833 377 c
1833 252 1802 153 1739 80 c
1677 7 1594 -29 1489 -29 c
1382 -29 1298 7 1236 80 c
1174 153 1143 252 1143 377 c
1143 502 1174 601 1236 674 c
1299 747 1383 784 1489 784 c

457 1393 m
400 1393 354 1368 321 1318 c
288 1269 272 1201 272 1114 c
272 1026 288 957 321 908 c
354 859 399 834 457 834 c
515 834 560 859 593 908 c
626 957 643 1026 643 1114 c
643 1200 626 1268 593 1318 c
560 1368 514 1393 457 1393 c

1360 1520 m
1520 1520 l
586 -29 l
426 -29 l
1360 1520 l

457 1520 m
562 1520 646 1483 709 1410 c
772 1337 803 1239 803 1114 c
803 988 772 889 709 816 c
647 743 563 707 457 707 c
351 707 267 743 205 816 c
144 889 113 989 113 1114 c
113 1238 144 1337 206 1410 c
268 1483 352 1520 457 1520 c

ce} _d
/parenleft{799 0 176 -270 635 1554 sc
635 1554 m
546 1401 479 1249 436 1099 c
393 949 371 797 371 643 c
371 489 393 336 436 185 c
480 34 546 -117 635 -270 c
475 -270 l
375 -113 300 41 250 192 c
201 343 176 494 176 643 c
176 792 201 941 250 1092 c
299 1243 374 1397 475 1554 c
635 1554 l

ce} _d
/parenright{799 0 164 -270 623 1554 sc
164 1554 m
324 1554 l
424 1397 499 1243 548 1092 c
598 941 623 792 623 643 c
623 494 598 343 548 192 c
499 41 424 -113 324 -270 c
164 -270 l
253 -117 319 34 362 185 c
406 336 428 489 428 643 c
428 797 406 949 362 1099 c
319 1249 253 1401 164 1554 c

ce} _d
/period{651 0 219 0 430 254 sc
219 254 m
430 254 l
430 0 l
219 0 l
219 254 l

ce} _d
/zero{1303 0 135 -29 1167 1520 sc
651 1360 m
547 1360 469 1309 416 1206 c
364 1104 338 950 338 745 c
338 540 364 387 416 284 c
469 182 547 131 651 131 c
756 131 834 182 886 284 c
939 387 965 540 965 745 c
965 950 939 1104 886 1206 c
834 1309 756 1360 651 1360 c

651 1520 m
818 1520 946 1454 1034 1321 c
1123 1189 1167 997 1167 745 c
1167 494 1123 302 1034 169 c
946 37 818 -29 651 -29 c
484 -29 356 37 267 169 c
179 302 135 494 135 745 c
135 997 179 1189 267 1321 c
356 1454 484 1520 651 1520 c

ce} _d
/one{1303 0 225 0 1114 1493 sc
254 170 m
584 170 l
584 1309 l
225 1237 l
225 1421 l
582 1493 l
784 1493 l
784 170 l
1114 170 l
1114 0 l
254 0 l
254 170 l

ce} _d
/two{1303 0 150 0 1098 1520 sc
393 170 m
1098 170 l
1098 0 l
150 0 l
150 170 l
227 249 331 356 463 489 c
596 623 679 709 713 748 c
778 821 823 882 848 932 c
874 983 887 1032 887 1081 c
887 1160 859 1225 803 1275 c
748 1325 675 1350 586 1350 c
523 1350 456 1339 385 1317 c
315 1295 240 1262 160 1217 c
160 1421 l
241 1454 317 1478 388 1495 c
459 1512 523 1520 582 1520 c
737 1520 860 1481 952 1404 c
1044 1327 1090 1223 1090 1094 c
1090 1033 1078 974 1055 919 c
1032 864 991 800 930 725 c
913 706 860 650 771 557 c
682 465 556 336 393 170 c

ce} _d
/three{1303 0 156 -29 1139 1520 sc
831 805 m
928 784 1003 741 1057 676 c
1112 611 1139 530 1139 434 c
1139 287 1088 173 987 92 c
886 11 742 -29 555 -29 c
492 -29 428 -23 361 -10 c
295 2 227 20 156 45 c
156 240 l
212 207 273 183 340 166 c
407 149 476 141 549 141 c
676 141 772 166 838 216 c
905 266 938 339 938 434 c
938 522 907 591 845 640 c
784 690 698 715 588 715 c
414 715 l
414 881 l
596 881 l
695 881 771 901 824 940 c
877 980 903 1037 903 1112 c
903 1189 876 1247 821 1288 c
767 1329 689 1350 588 1350 c
533 1350 473 1344 410 1332 c
347 1320 277 1301 201 1276 c
201 1456 l
278 1477 349 1493 416 1504 c
483 1515 547 1520 606 1520 c
759 1520 881 1485 970 1415 c
1059 1346 1104 1252 1104 1133 c
1104 1050 1080 980 1033 923 c
986 866 918 827 831 805 c

ce} _d
/four{1303 0 100 0 1188 1493 sc
774 1317 m
264 520 l
774 520 l
774 1317 l

721 1493 m
975 1493 l
975 520 l
1188 520 l
1188 352 l
975 352 l
975 0 l
774 0 l
774 352 l
100 352 l
100 547 l
721 1493 l

ce} _d
/five{1303 0 158 -29 1124 1493 sc
221 1493 m
1014 1493 l
1014 1323 l
406 1323 l
406 957 l
435 967 465 974 494 979 c
523 984 553 987 582 987 c
749 987 881 941 978 850 c
1075 759 1124 635 1124 479 c
1124 318 1074 193 974 104 c
874 15 733 -29 551 -29 c
488 -29 424 -24 359 -13 c
294 -2 227 14 158 35 c
158 238 l
218 205 280 181 344 165 c
408 149 476 141 547 141 c
662 141 754 171 821 232 c
888 293 922 375 922 479 c
922 583 888 665 821 726 c
754 787 662 817 547 817 c
493 817 439 811 385 799 c
332 787 277 768 221 743 c
221 1493 l

ce} _d
/six{1303 0 143 -29 1174 1520 sc
676 827 m
585 827 513 796 460 734 c
407 672 381 587 381 479 c
381 372 407 287 460 224 c
513 162 585 131 676 131 c
767 131 838 162 891 224 c
944 287 971 372 971 479 c
971 587 944 672 891 734 c
838 796 767 827 676 827 c

1077 1460 m
1077 1276 l
1026 1300 975 1318 923 1331 c
872 1344 821 1350 770 1350 c
637 1350 535 1305 464 1215 c
394 1125 354 989 344 807 c
383 865 433 909 492 940 c
551 971 617 987 688 987 c
838 987 956 941 1043 850 c
1130 759 1174 636 1174 479 c
1174 326 1129 203 1038 110 c
947 17 827 -29 676 -29 c
503 -29 371 37 280 169 c
189 302 143 494 143 745 c
143 981 199 1169 311 1309 c
423 1450 573 1520 762 1520 c
813 1520 864 1515 915 1505 c
967 1495 1021 1480 1077 1460 c

ce} _d
/seven{1303 0 168 0 1128 1493 sc
168 1493 m
1128 1493 l
1128 1407 l
586 0 l
375 0 l
885 1323 l
168 1323 l
168 1493 l

ce} _d
/eight{1303 0 139 -29 1163 1520 sc
651 709 m
555 709 479 683 424 632 c
369 581 342 510 342 420 c
342 330 369 259 424 208 c
479 157 555 131 651 131 c
747 131 823 157 878 208 c
933 260 961 331 961 420 c
961 510 933 581 878 632 c
823 683 748 709 651 709 c

449 795 m
362 816 295 857 246 916 c
198 975 174 1048 174 1133 c
174 1252 216 1347 301 1416 c
386 1485 503 1520 651 1520 c
800 1520 916 1485 1001 1416 c
1086 1347 1128 1252 1128 1133 c
1128 1048 1104 975 1055 916 c
1007 857 940 816 854 795 c
951 772 1027 728 1081 662 c
1136 596 1163 515 1163 420 c
1163 275 1119 164 1030 87 c
942 10 816 -29 651 -29 c
486 -29 360 10 271 87 c
183 164 139 275 139 420 c
139 515 166 596 221 662 c
276 728 352 772 449 795 c

375 1114 m
375 1037 399 976 447 933 c
496 890 564 868 651 868 c
738 868 805 890 854 933 c
903 976 928 1037 928 1114 c
928 1191 903 1252 854 1295 c
805 1338 738 1360 651 1360 c
564 1360 496 1338 447 1295 c
399 1252 375 1191 375 1114 c

ce} _d
/nine{1303 0 129 -29 1159 1520 sc
225 31 m
225 215 l
276 191 327 173 379 160 c
431 147 482 141 532 141 c
665 141 767 186 837 275 c
908 365 948 501 958 684 c
919 627 870 583 811 552 c
752 521 686 506 614 506 c
465 506 346 551 259 641 c
172 732 129 855 129 1012 c
129 1165 174 1288 265 1381 c
356 1474 476 1520 627 1520 c
800 1520 931 1454 1022 1321 c
1113 1189 1159 997 1159 745 c
1159 510 1103 322 991 181 c
880 41 730 -29 541 -29 c
490 -29 439 -24 387 -14 c
335 -4 281 11 225 31 c

627 664 m
718 664 789 695 842 757 c
895 819 922 904 922 1012 c
922 1119 895 1204 842 1266 c
789 1329 718 1360 627 1360 c
536 1360 464 1329 411 1266 c
358 1204 332 1119 332 1012 c
332 904 358 819 411 757 c
464 695 536 664 627 664 c

ce} _d
/A{1401 0 16 0 1384 1493 sc
700 1294 m
426 551 l
975 551 l
700 1294 l

586 1493 m
815 1493 l
1384 0 l
1174 0 l
1038 383 l
365 383 l
229 0 l
16 0 l
586 1493 l

ce} _d
/C{1430 0 115 -29 1319 1520 sc
1319 1378 m
1319 1165 l
1251 1228 1178 1276 1101 1307 c
1024 1338 943 1354 856 1354 c
685 1354 555 1302 464 1197 c
373 1093 328 942 328 745 c
328 548 373 398 464 293 c
555 189 685 137 856 137 c
943 137 1024 153 1101 184 c
1178 215 1251 263 1319 326 c
1319 115 l
1248 67 1173 31 1094 7 c
1015 -17 932 -29 844 -29 c
618 -29 440 40 310 178 c
180 317 115 506 115 745 c
115 985 180 1174 310 1312 c
440 1451 618 1520 844 1520 c
933 1520 1017 1508 1096 1484 c
1175 1461 1250 1425 1319 1378 c

ce} _d
/M{1767 0 201 0 1567 1493 sc
201 1493 m
502 1493 l
883 477 l
1266 1493 l
1567 1493 l
1567 0 l
1370 0 l
1370 1311 l
985 287 l
782 287 l
397 1311 l
397 0 l
201 0 l
201 1493 l

ce} _d
/N{1532 0 201 0 1331 1493 sc
201 1493 m
473 1493 l
1135 244 l
1135 1493 l
1331 1493 l
1331 0 l
1059 0 l
397 1249 l
397 0 l
201 0 l
201 1493 l

ce} _d
/R{1423 0 201 0 1364 1493 sc
909 700 m
952 685 994 654 1035 606 c
1076 558 1118 492 1159 408 c
1364 0 l
1147 0 l
956 383 l
907 483 859 549 812 582 c
766 615 703 631 623 631 c
403 631 l
403 0 l
201 0 l
201 1493 l
657 1493 l
828 1493 955 1457 1039 1386 c
1123 1315 1165 1207 1165 1063 c
1165 969 1143 891 1099 829 c
1056 767 992 724 909 700 c

403 1327 m
403 797 l
657 797 l
754 797 828 819 877 864 c
927 909 952 976 952 1063 c
952 1150 927 1216 877 1260 c
828 1305 754 1327 657 1327 c
403 1327 l

ce} _d
/T{1251 0 -6 0 1257 1493 sc
-6 1493 m
1257 1493 l
1257 1323 l
727 1323 l
727 0 l
524 0 l
524 1323 l
-6 1323 l
-6 1493 l

ce} _d
/V{1401 0 16 0 1384 1493 sc
586 0 m
16 1493 l
227 1493 l
700 236 l
1174 1493 l
1384 1493 l
815 0 l
586 0 l

ce} _d
/a{1255 0 123 -29 1069 1147 sc
702 563 m
553 563 450 546 393 512 c
336 478 307 420 307 338 c
307 273 328 221 371 182 c
414 144 473 125 547 125 c
649 125 731 161 792 233 c
854 306 885 402 885 522 c
885 563 l
702 563 l

1069 639 m
1069 0 l
885 0 l
885 170 l
843 102 791 52 728 19 c
665 -13 589 -29 498 -29 c
383 -29 292 3 224 67 c
157 132 123 218 123 326 c
123 452 165 547 249 611 c
334 675 460 707 627 707 c
885 707 l
885 725 l
885 810 857 875 801 921 c
746 968 668 991 567 991 c
503 991 441 983 380 968 c
319 953 261 930 205 899 c
205 1069 l
272 1095 338 1114 401 1127 c
464 1140 526 1147 586 1147 c
748 1147 869 1105 949 1021 c
1029 937 1069 810 1069 639 c

ce} _d
/b{1300 0 186 -29 1188 1556 sc
997 559 m
997 694 969 800 913 877 c
858 954 781 993 684 993 c
587 993 510 954 454 877 c
399 800 371 694 371 559 c
371 424 399 317 454 240 c
510 163 587 125 684 125 c
781 125 858 163 913 240 c
969 317 997 424 997 559 c

371 950 m
410 1017 458 1066 517 1098 c
576 1131 647 1147 729 1147 c
865 1147 975 1093 1060 985 c
1145 877 1188 735 1188 559 c
1188 383 1145 241 1060 133 c
975 25 865 -29 729 -29 c
647 -29 576 -13 517 19 c
458 52 410 101 371 168 c
371 0 l
186 0 l
186 1556 l
371 1556 l
371 950 l

ce} _d
/c{1126 0 113 -29 999 1147 sc
999 1077 m
999 905 l
947 934 895 955 842 969 c
790 984 737 991 684 991 c
565 991 472 953 406 877 c
340 802 307 696 307 559 c
307 422 340 316 406 240 c
472 165 565 127 684 127 c
737 127 790 134 842 148 c
895 163 947 184 999 213 c
999 43 l
948 19 894 1 839 -11 c
784 -23 726 -29 664 -29 c
495 -29 361 24 262 130 c
163 236 113 379 113 559 c
113 742 163 885 263 990 c
364 1095 501 1147 676 1147 c
733 1147 788 1141 842 1129 c
896 1118 948 1100 999 1077 c

ce} _d
/d{1300 0 113 -29 1114 1556 sc
930 950 m
930 1556 l
1114 1556 l
1114 0 l
930 0 l
930 168 l
891 101 842 52 783 19 c
724 -13 654 -29 571 -29 c
436 -29 325 25 240 133 c
155 241 113 383 113 559 c
113 735 155 877 240 985 c
325 1093 436 1147 571 1147 c
654 1147 724 1131 783 1098 c
842 1066 891 1017 930 950 c

303 559 m
303 424 331 317 386 240 c
442 163 519 125 616 125 c
713 125 790 163 846 240 c
902 317 930 424 930 559 c
930 694 902 800 846 877 c
790 954 713 993 616 993 c
519 993 442 954 386 877 c
331 800 303 694 303 559 c

ce} _d
/e{1260 0 113 -29 1151 1147 sc
1151 606 m
1151 516 l
305 516 l
313 389 351 293 419 226 c
488 160 583 127 705 127 c
776 127 844 136 910 153 c
977 170 1043 196 1108 231 c
1108 57 l
1042 29 974 8 905 -7 c
836 -22 765 -29 694 -29 c
515 -29 374 23 269 127 c
165 231 113 372 113 549 c
113 732 162 878 261 985 c
360 1093 494 1147 662 1147 c
813 1147 932 1098 1019 1001 c
1107 904 1151 773 1151 606 c

967 660 m
966 761 937 841 882 901 c
827 961 755 991 664 991 c
561 991 479 962 417 904 c
356 846 320 764 311 659 c
967 660 l

ce} _d
/f{721 0 47 0 760 1556 sc
760 1556 m
760 1403 l
584 1403 l
518 1403 472 1390 446 1363 c
421 1336 408 1288 408 1219 c
408 1120 l
711 1120 l
711 977 l
408 977 l
408 0 l
223 0 l
223 977 l
47 977 l
47 1120 l
223 1120 l
223 1198 l
223 1323 252 1413 310 1470 c
368 1527 460 1556 586 1556 c
760 1556 l

ce} _d
/i{569 0 193 0 377 1556 sc
193 1120 m
377 1120 l
377 0 l
193 0 l
193 1120 l

193 1556 m
377 1556 l
377 1323 l
193 1323 l
193 1556 l

ce} _d
/k{1186 0 186 0 1180 1556 sc
186 1556 m
371 1556 l
371 637 l
920 1120 l
1155 1120 l
561 596 l
1180 0 l
940 0 l
371 547 l
371 0 l
186 0 l
186 1556 l

ce} _d
/l{569 0 193 0 377 1556 sc
193 1556 m
377 1556 l
377 0 l
193 0 l
193 1556 l

ce} _d
/m{1995 0 186 0 1821 1147 sc
1065 905 m
1111 988 1166 1049 1230 1088 c
1294 1127 1369 1147 1456 1147 c
1573 1147 1663 1106 1726 1024 c
1789 943 1821 827 1821 676 c
1821 0 l
1636 0 l
1636 670 l
1636 777 1617 857 1579 909 c
1541 961 1483 987 1405 987 c
1310 987 1234 955 1179 892 c
1124 829 1096 742 1096 633 c
1096 0 l
911 0 l
911 670 l
911 778 892 858 854 909 c
816 961 757 987 678 987 c
584 987 509 955 454 891 c
399 828 371 742 371 633 c
371 0 l
186 0 l
186 1120 l
371 1120 l
371 946 l
413 1015 463 1065 522 1098 c
581 1131 650 1147 731 1147 c
812 1147 881 1126 938 1085 c
995 1044 1038 984 1065 905 c

ce} _d
/n{1298 0 186 0 1124 1147 sc
1124 676 m
1124 0 l
940 0 l
940 670 l
940 776 919 855 878 908 c
837 961 775 987 692 987 c
593 987 514 955 457 892 c
400 829 371 742 371 633 c
371 0 l
186 0 l
186 1120 l
371 1120 l
371 946 l
415 1013 467 1064 526 1097 c
586 1130 655 1147 733 1147 c
862 1147 959 1107 1025 1027 c
1091 948 1124 831 1124 676 c

ce} _d
/o{1253 0 113 -29 1141 1147 sc
627 991 m
528 991 450 952 393 875 c
336 798 307 693 307 559 c
307 425 335 319 392 242 c
449 165 528 127 627 127 c
725 127 803 166 860 243 c
917 320 946 426 946 559 c
946 692 917 797 860 874 c
803 952 725 991 627 991 c

627 1147 m
787 1147 913 1095 1004 991 c
1095 887 1141 743 1141 559 c
1141 376 1095 232 1004 127 c
913 23 787 -29 627 -29 c
466 -29 340 23 249 127 c
158 232 113 376 113 559 c
113 743 158 887 249 991 c
340 1095 466 1147 627 1147 c

ce} _d
/p{1300 0 186 -426 1188 1147 sc
371 168 m
371 -426 l
186 -426 l
186 1120 l
371 1120 l
371 950 l
410 1017 458 1066 517 1098 c
576 1131 647 1147 729 1147 c
865 1147 975 1093 1060 985 c
1145 877 1188 735 1188 559 c
1188 383 1145 241 1060 133 c
975 25 865 -29 729 -29 c
647 -29 576 -13 517 19 c
458 52 410 101 371 168 c

997 559 m
997 694 969 800 913 877 c
858 954 781 993 684 993 c
587 993 510 954 454 877 c
399 800 371 694 371 559 c
371 424 399 317 454 240 c
510 163 587 125 684 125 c
781 125 858 163 913 240 c
969 317 997 424 997 559 c

ce} _d
/r{842 0 186 0 842 1147 sc
842 948 m
821 960 799 969 774 974 c
750 980 723 983 694 983 c
590 983 510 949 454 881 c
399 814 371 717 371 590 c
371 0 l
186 0 l
186 1120 l
371 1120 l
371 946 l
410 1014 460 1064 522 1097 c
584 1130 659 1147 748 1147 c
761 1147 775 1146 790 1144 c
805 1143 822 1140 841 1137 c
842 948 l

ce} _d
/s{1067 0 111 -29 967 1147 sc
907 1087 m
907 913 l
855 940 801 960 745 973 c
689 986 631 993 571 993 c
480 993 411 979 365 951 c
320 923 297 881 297 825 c
297 782 313 749 346 724 c
379 700 444 677 543 655 c
606 641 l
737 613 829 573 884 522 c
939 471 967 400 967 309 c
967 205 926 123 843 62 c
761 1 648 -29 504 -29 c
444 -29 381 -23 316 -11 c
251 0 183 18 111 41 c
111 231 l
179 196 246 169 312 151 c
378 134 443 125 508 125 c
595 125 661 140 708 169 c
755 199 778 241 778 295 c
778 345 761 383 727 410 c
694 437 620 462 506 487 c
442 502 l
328 526 246 563 195 612 c
144 662 119 730 119 817 c
119 922 156 1004 231 1061 c
306 1118 412 1147 549 1147 c
617 1147 681 1142 741 1132 c
801 1122 856 1107 907 1087 c

ce} _d
/t{803 0 55 0 754 1438 sc
375 1438 m
375 1120 l
754 1120 l
754 977 l
375 977 l
375 369 l
375 278 387 219 412 193 c
437 167 488 154 565 154 c
754 154 l
754 0 l
565 0 l
423 0 325 26 271 79 c
217 132 190 229 190 369 c
190 977 l
55 977 l
55 1120 l
190 1120 l
190 1438 l
375 1438 l

ce} _d
/u{1298 0 174 -29 1112 1147 sc
174 442 m
174 1120 l
358 1120 l
358 449 l
358 343 379 263 420 210 c
461 157 523 131 606 131 c
705 131 784 163 841 226 c
899 289 928 376 928 485 c
928 1120 l
1112 1120 l
1112 0 l
928 0 l
928 172 l
883 104 831 53 772 20 c
713 -13 645 -29 567 -29 c
438 -29 341 11 274 91 c
207 171 174 288 174 442 c

637 1147 m
637 1147 l

ce} _d
/y{1212 0 61 -426 1151 1120 sc
659 -104 m
607 -237 556 -324 507 -365 c
458 -406 392 -426 309 -426 c
162 -426 l
162 -272 l
270 -272 l
321 -272 360 -260 388 -236 c
416 -212 447 -155 481 -66 c
514 18 l
61 1120 l
256 1120 l
606 244 l
956 1120 l
1151 1120 l
659 -104 l

ce} _d
end readonly def

/BuildGlyph {
 exch begin
 CharStrings exch
 2 copy known not {pop /.notdef} if
 true 3 1 roll get exec
 end
} _d

/BuildChar {
 1 index /Encoding get exch get
 1 index /BuildGlyph get exec
} _d

FontName currentdict end definefont pop
end
%%EndProlog
mpldict begin
48.076 233.01 translate
515.848 325.981 0 0 clipbox
gsave
0 0 m
515.848125 0 l
515.848125 325.98075 l
0 325.98075 l
cl
1.000 setgray
fill
grestore
gsave
46.95 37.54375 m
404.07 37.54375 l
404.07 303.65575 l
46.95 303.65575 l
cl
1.000 setgray
fill
grestore
gsave
357.12 266.112 46.95 37.544 clipbox
63.182727 37.54375 m
86.189742 37.54375 l
86.189742 290.98375 l
63.182727 290.98375 l
cl
0.122 0.467 0.706 setrgbcolor
fill
grestore
gsave
357.12 266.112 46.95 37.544 clipbox
148.393894 37.54375 m
171.400909 37.54375 l
171.400909 222.619935 l
148.393894 222.619935 l
cl
0.122 0.467 0.706 setrgbcolor
fill
grestore
gsave
357.12 266.112 46.95 37.544 clipbox
233.605061 37.54375 m
256.612076 37.54375 l
256.612076 193.766765 l
233.605061 193.766765 l
cl
0.122 0.467 0.706 setrgbcolor
fill
grestore
gsave
357.12 266.112 46.95 37.544 clipbox
318.816228 37.54375 m
341.823243 37.54375 l
341.823243 170.112365 l
318.816228 170.112365 l
cl
0.122 0.467 0.706 setrgbcolor
fill
grestore
gsave
357.12 266.112 46.95 37.544 clipbox
86.189742 37.54375 m
109.196757 37.54375 l
109.196757 282.665719 l
86.189742 282.665719 l
cl
1.000 0.498 0.055 setrgbcolor
fill
grestore
gsave
357.12 266.112 46.95 37.544 clipbox
171.400909 37.54375 m
194.407924 37.54375 l
194.407924 183.889104 l
171.400909 183.889104 l
cl
1.000 0.498 0.055 setrgbcolor
fill
grestore
gsave
357.12 266.112 46.95 37.544 clipbox
256.612076 37.54375 m
279.619091 37.54375 l
279.619091 151.916673 l
256.612076 151.916673 l
cl
1.000 0.498 0.055 setrgbcolor
fill
grestore
gsave
357.12 266.112 46.95 37.544 clipbox
341.823243 37.54375 m
364.830258 37.54375 l
364.830258 132.16135 l
341.823243 132.16135 l
cl
1.000 0.498 0.055 setrgbcolor
fill
grestore
gsave
357.12 266.112 46.95 37.544 clipbox
109.196757 37.54375 m
132.203772 37.54375 l
132.203772 280.84615 l
109.196757 280.84615 l
cl
0.173 0.627 0.173 setrgbcolor
fill
grestore
gsave
357.12 266.112 46.95 37.544 clipbox
194.407924 37.54375 m
217.414939 37.54375 l
217.414939 172.191873 l
194.407924 172.191873 l
cl
0.173 0.627 0.173 setrgbcolor
fill
grestore
gsave
357.12 266.112 46.95 37.544 clipbox
279.619091 37.54375 m
302.626106 37.54375 l
302.626106 128.78215 l
279.619091 128.78215 l
cl
0.173 0.627 0.173 setrgbcolor
fill
grestore
gsave
357.12 266.112 46.95 37.544 clipbox
364.830258 37.54375 m
387.837273 37.54375 l
387.837273 117.604796 l
364.830258 117.604796 l
cl
0.173 0.627 0.173 setrgbcolor
fill
grestore
0.800 setlinewidth
1 setlinejoin
0 setlinecap
[] 0 setdash
0.000 setgray
gsave
/o {
gsave
newpath
translate
0.8 setlinewidth
1 setlinejoin

0 setlinecap

0 0 m
0 -3.5 l

gsave
0.000 setgray
fill
grestore
stroke
grestore
} bind def
97.6932 37.5438 o
grestore
/DejaVuSans 10.000 selectfont
gsave

94.5136 22.95 translate
0 rotate
0 0 m /zero glyphshow
grestore
gsave
/o {
gsave
newpath
translate
0.8 setlinewidth
1 setlinejoin

0 setlinecap

0 0 m
0 -3.5 l

gsave
0.000 setgray
fill
grestore
stroke
grestore
} bind def
182.904 37.5438 o
grestore
/DejaVuSans 10.000 selectfont
gsave

179.725 22.95 translate
0 rotate
0 0 m /one glyphshow
grestore
gsave
/o {
gsave
newpath
translate
0.8 setlinewidth
1 setlinejoin

0 setlinecap

0 0 m
0 -3.5 l

gsave
0.000 setgray
fill
grestore
stroke
grestore
} bind def
268.116 37.5438 o
grestore
/DejaVuSans 10.000 selectfont
gsave

264.936 22.95 translate
0 rotate
0 0 m /two glyphshow
grestore
gsave
/o {
gsave
newpath
translate
0.8 setlinewidth
1 setlinejoin

0 setlinecap

0 0 m
0 -3.5 l

gsave
0.000 setgray
fill
grestore
stroke
grestore
} bind def
353.327 37.5438 o
grestore
/DejaVuSans 10.000 selectfont
gsave

350.147 22.95 translate
0 rotate
0 0 m /three glyphshow
grestore
/DejaVuSans 10.000 selectfont
gsave

214.698 9.27813 translate
0 rotate
0 0 m /T glyphshow
4.4834 0 m /a glyphshow
10.6113 0 m /s glyphshow
15.8213 0 m /k glyphshow
grestore
gsave
/o {
gsave
newpath
translate
0.8 setlinewidth
1 setlinejoin

0 setlinecap

-0 0 m
-3.5 0 l

gsave
0.000 setgray
fill
grestore
stroke
grestore
} bind def
46.95 37.5438 o
grestore
/DejaVuSans 10.000 selectfont
gsave

33.5906 33.7469 translate
0 rotate
0 0 m /zero glyphshow
grestore
gsave
/o {
gsave
newpath
translate
0.8 setlinewidth
1 setlinejoin

0 setlinecap

-0 0 m
-3.5 0 l

gsave
0.000 setgray
fill
grestore
stroke
grestore
} bind def
46.95 89.5314 o
grestore
/DejaVuSans 10.000 selectfont
gsave

27.2313 85.7346 translate
0 rotate
0 0 m /two glyphshow
6.3623 0 m /zero glyphshow
grestore
gsave
/o {
gsave
newpath
translate
0.8 setlinewidth
1 setlinejoin

0 setlinecap

-0 0 m
-3.5 0 l

gsave
0.000 setgray
fill
grestore
stroke
grestore
} bind def
46.95 141.519 o
grestore
/DejaVuSans 10.000 selectfont
gsave

27.2313 137.722 translate
0 rotate
0 0 m /four glyphshow
6.3623 0 m /zero glyphshow
grestore
gsave
/o {
gsave
newpath
translate
0.8 setlinewidth
1 setlinejoin

0 setlinecap

-0 0 m
-3.5 0 l

gsave
0.000 setgray
fill
grestore
stroke
grestore
} bind def
46.95 193.507 o
grestore
/DejaVuSans 10.000 selectfont
gsave

27.2313 189.71 translate
0 rotate
0 0 m /six glyphshow
6.3623 0 m /zero glyphshow
grestore
gsave
/o {
gsave
newpath
translate
0.8 setlinewidth
1 setlinejoin

0 setlinecap

-0 0 m
-3.5 0 l

gsave
0.000 setgray
fill
grestore
stroke
grestore
} bind def
46.95 245.495 o
grestore
/DejaVuSans 10.000 selectfont
gsave

27.2313 241.698 translate
0 rotate
0 0 m /eight glyphshow
6.3623 0 m /zero glyphshow
grestore
gsave
/o {
gsave
newpath
translate
0.8 setlinewidth
1 setlinejoin

0 setlinecap

-0 0 m
-3.5 0 l

gsave
0.000 setgray
fill
grestore
stroke
grestore
} bind def
46.95 297.482 o
grestore
/DejaVuSans 10.000 selectfont
gsave

20.8719 293.685 translate
0 rotate
0 0 m /one glyphshow
6.3623 0 m /zero glyphshow
12.7246 0 m /zero glyphshow
grestore
/DejaVuSans 10.000 selectfont
gsave

14.7938 137.49 translate
90 rotate
0 0 m /A glyphshow
6.71582 0 m /c glyphshow
12.2139 0 m /c glyphshow
17.7119 0 m /u glyphshow
24.0498 0 m /r glyphshow
28.1611 0 m /a glyphshow
34.2891 0 m /c glyphshow
39.7871 0 m /y glyphshow
45.7051 0 m /space glyphshow
48.8838 0 m /parenleft glyphshow
52.7852 0 m /percent glyphshow
62.2871 0 m /parenright glyphshow
grestore
0 setlinejoin
2 setlinecap
gsave
46.95 37.54375 m
46.95 303.65575 l
stroke
grestore
gsave
404.07 37.54375 m
404.07 303.65575 l
stroke
grestore
gsave
46.95 37.54375 m
404.07 37.54375 l
stroke
grestore
gsave
46.95 303.65575 m
404.07 303.65575 l
stroke
grestore
/DejaVuSans 8.000 selectfont
gsave

65.7722 292.656 translate
0 rotate
0 0 m /nine glyphshow
5.08984 0 m /seven glyphshow
10.1797 0 m /period glyphshow
12.7227 0 m /five glyphshow
grestore
/DejaVuSans 8.000 selectfont
gsave

150.983 224.292 translate
0 rotate
0 0 m /seven glyphshow
5.08984 0 m /one glyphshow
10.1797 0 m /period glyphshow
12.7227 0 m /two glyphshow
grestore
/DejaVuSans 8.000 selectfont
gsave

236.195 195.439 translate
0 rotate
0 0 m /six glyphshow
5.08984 0 m /zero glyphshow
10.1797 0 m /period glyphshow
12.7227 0 m /one glyphshow
grestore
/DejaVuSans 8.000 selectfont
gsave

321.406 171.784 translate
0 rotate
0 0 m /five glyphshow
5.08984 0 m /one glyphshow
10.1797 0 m /period glyphshow
12.7227 0 m /zero glyphshow
grestore
/DejaVuSans 8.000 selectfont
gsave

88.7792 284.338 translate
0 rotate
0 0 m /nine glyphshow
5.08984 0 m /four glyphshow
10.1797 0 m /period glyphshow
12.7227 0 m /three glyphshow
grestore
/DejaVuSans 8.000 selectfont
gsave

173.99 185.561 translate
0 rotate
0 0 m /five glyphshow
5.08984 0 m /six glyphshow
10.1797 0 m /period glyphshow
12.7227 0 m /three glyphshow
grestore
/DejaVuSans 8.000 selectfont
gsave

259.202 153.589 translate
0 rotate
0 0 m /four glyphshow
5.08984 0 m /four glyphshow
10.1797 0 m /period glyphshow
12.7227 0 m /zero glyphshow
grestore
/DejaVuSans 8.000 selectfont
gsave

344.413 133.833 translate
0 rotate
0 0 m /three glyphshow
5.08984 0 m /six glyphshow
10.1797 0 m /period glyphshow
12.7227 0 m /four glyphshow
grestore
/DejaVuSans 8.000 selectfont
gsave

111.786 282.518 translate
0 rotate
0 0 m /nine glyphshow
5.08984 0 m /three glyphshow
10.1797 0 m /period glyphshow
12.7227 0 m /six glyphshow
grestore
/DejaVuSans 8.000 selectfont
gsave

196.997 173.864 translate
0 rotate
0 0 m /five glyphshow
5.08984 0 m /one glyphshow
10.1797 0 m /period glyphshow
12.7227 0 m /eight glyphshow
grestore
/DejaVuSans 8.000 selectfont
gsave

282.209 130.454 translate
0 rotate
0 0 m /three glyphshow
5.08984 0 m /five glyphshow
10.1797 0 m /period glyphshow
12.7227 0 m /one glyphshow
grestore
/DejaVuSans 8.000 selectfont
gsave

367.42 119.277 translate
0 rotate
0 0 m /three glyphshow
5.08984 0 m /zero glyphshow
10.1797 0 m /period glyphshow
12.7227 0 m /eight glyphshow
grestore
/DejaVuSans 12.000 selectfont
gsave

158.838 309.656 translate
0 rotate
0 0 m /C glyphshow
8.37891 0 m /o glyphshow
15.7207 0 m /m glyphshow
27.4102 0 m /p glyphshow
35.0273 0 m /a glyphshow
42.3809 0 m /r glyphshow
47.3145 0 m /i glyphshow
50.6484 0 m /s glyphshow
56.9004 0 m /o glyphshow
64.2422 0 m /n glyphshow
71.8477 0 m /space glyphshow
75.6621 0 m /o glyphshow
83.0039 0 m /f glyphshow
87.2285 0 m /space glyphshow
91.043 0 m /M glyphshow
101.396 0 m /o glyphshow
108.738 0 m /d glyphshow
116.355 0 m /e glyphshow
123.738 0 m /l glyphshow
127.072 0 m /s glyphshow
grestore
1.000 setlinewidth
0 setlinecap
0.800 setgray
gsave
411.07 251.640125 m
506.648125 251.640125 l
507.981458 251.640125 508.648125 252.306792 508.648125 253.640125 c
508.648125 296.65575 l
508.648125 297.989083 507.981458 298.65575 506.648125 298.65575 c
411.07 298.65575 l
409.736667 298.65575 409.07 297.989083 409.07 296.65575 c
409.07 253.640125 l
409.07 252.306792 409.736667 251.640125 411.07 251.640125 c
cl
gsave
1.000 setgray
fill
grestore
stroke
grestore
gsave
413.07 287.062 m
433.07 287.062 l
433.07 294.062 l
413.07 294.062 l
cl
0.122 0.467 0.706 setrgbcolor
fill
grestore
0.000 setgray
/DejaVuSans 10.000 selectfont
gsave

441.07 287.062 translate
0 rotate
0 0 m /M glyphshow
8.62793 0 m /o glyphshow
14.7461 0 m /b glyphshow
21.0938 0 m /i glyphshow
23.8721 0 m /l glyphshow
26.6504 0 m /e glyphshow
32.8027 0 m /N glyphshow
40.2832 0 m /e glyphshow
46.4355 0 m /t glyphshow
50.3564 0 m /V glyphshow
57.1973 0 m /two glyphshow
grestore
gsave
413.07 272.390125 m
433.07 272.390125 l
433.07 279.390125 l
413.07 279.390125 l
cl
1.000 0.498 0.055 setrgbcolor
fill
grestore
/DejaVuSans 10.000 selectfont
gsave

441.07 272.39 translate
0 rotate
0 0 m /R glyphshow
6.44824 0 m /e glyphshow
12.6006 0 m /s glyphshow
17.8105 0 m /N glyphshow
25.291 0 m /e glyphshow
31.4434 0 m /t glyphshow
35.3643 0 m /one glyphshow
41.7266 0 m /eight glyphshow
grestore
gsave
413.07 257.71825 m
433.07 257.71825 l
433.07 264.71825 l
413.07 264.71825 l
cl
0.173 0.627 0.173 setrgbcolor
fill
grestore
/DejaVuSans 10.000 selectfont
gsave

441.07 257.718 translate
0 rotate
0 0 m /R glyphshow
6.44824 0 m /e glyphshow
12.6006 0 m /s glyphshow
17.8105 0 m /N glyphshow
25.291 0 m /e glyphshow
31.4434 0 m /t glyphshow
35.3643 0 m /five glyphshow
41.7266 0 m /zero glyphshow
grestore

end
showpage
